\relax 
\citation{wang2013learning}
\citation{mcclendon}
\citation{mcclendon}
\citation{wang2013learning}
\citation{kang2017prediction}
\citation{kang2017prediction}
\citation{kotsiantis2007supervised}
\citation{kotsiantis2007supervised}
\@writefile{toc}{\contentsline {section}{\numberline {I}Background}{1}}
\citation{hall2009weka}
\citation{vancouverOpenData}
\citation{kubrin2003new}
\citation{farrington2017integrated}
\citation{brantingham1981environmental}
\citation{kang2017prediction}
\@writefile{toc}{\contentsline {section}{\numberline {II}Machine Learning}{2}}
\@writefile{toc}{\contentsline {subsection}{\numberline {\unhbox \voidb@x \hbox {II-A}}Overview}{2}}
\@writefile{toc}{\contentsline {section}{\numberline {III}Methodology}{2}}
\@writefile{toc}{\contentsline {subsection}{\numberline {\unhbox \voidb@x \hbox {III-A}}Manual Attribute Selection}{2}}
\@writefile{toc}{\contentsline {subsection}{\numberline {\unhbox \voidb@x \hbox {III-B}}Attribute Selection by Evaluation}{2}}
\@writefile{lof}{\contentsline {figure}{\numberline {1}{\ignorespaces Male Population vs. Crimes per Capita }}{2}}
\newlabel{cpc_vs_male_pop}{{1}{2}}
\citation{cai2006estimating}
\citation{witten2016data}
\citation{pearsoncorrelation}
\@writefile{lof}{\contentsline {figure}{\numberline {2}{\ignorespaces Aboriginal Population vs. Crimes per Capita}}{3}}
\newlabel{cpc_vs_aboriginal}{{2}{3}}
\@writefile{toc}{\contentsline {subsection}{\numberline {\unhbox \voidb@x \hbox {III-C}}Cubic Spline Interpolation}{3}}
\@writefile{lof}{\contentsline {figure}{\numberline {3}{\ignorespaces Vancouver Census Areas}}{3}}
\newlabel{vancouver_census_areas}{{3}{3}}
\@writefile{lof}{\contentsline {figure}{\numberline {4}{\ignorespaces Cubit Spline Interpolation Demonstration}}{3}}
\newlabel{spline_estimate}{{4}{3}}
\@writefile{toc}{\contentsline {subsection}{\numberline {\unhbox \voidb@x \hbox {III-D}}Algorithm Evaluation}{3}}
\citation{willmott2005advantages}
\citation{willmott2005advantages}
\citation{all_classes_2018}
\@writefile{toc}{\contentsline {subsection}{\numberline {\unhbox \voidb@x \hbox {III-E}}Correlation Coefficient}{4}}
\@writefile{toc}{\contentsline {subsection}{\numberline {\unhbox \voidb@x \hbox {III-F}}Mean Absolute Error (MAE)}{4}}
\@writefile{toc}{\contentsline {subsection}{\numberline {\unhbox \voidb@x \hbox {III-G}}Root Mean Squared Error (RMSE)}{4}}
\@writefile{toc}{\contentsline {subsection}{\numberline {\unhbox \voidb@x \hbox {III-H}}Relative Absolute Error (RAE)}{4}}
\@writefile{toc}{\contentsline {subsection}{\numberline {\unhbox \voidb@x \hbox {III-I}}Root Relative Squared Error RRSE}{4}}
\@writefile{toc}{\contentsline {section}{\numberline {IV}Machine Learning Algorithms}{4}}
\@writefile{toc}{\contentsline {subsection}{\numberline {\unhbox \voidb@x \hbox {IV-A}}Multiple Linear Regression}{4}}
\citation{all_classes_2018}
\citation{all_classes_2018}
\citation{Holmes1999}
\citation{Quinlan1992}
\citation{Wang1997}
\@writefile{toc}{\contentsline {subsection}{\numberline {\unhbox \voidb@x \hbox {IV-B}}Additive Regression}{5}}
\@writefile{toc}{\contentsline {subsection}{\numberline {\unhbox \voidb@x \hbox {IV-C}}Multilayer Perceptron (MLP)}{5}}
\@writefile{toc}{\contentsline {subsection}{\numberline {\unhbox \voidb@x \hbox {IV-D}}K* Instance Based Classifier}{5}}
\@writefile{toc}{\contentsline {subsection}{\numberline {\unhbox \voidb@x \hbox {IV-E}}M5 Rules}{5}}
\@writefile{toc}{\contentsline {section}{\numberline {V}Results \& Discussion}{5}}
\@writefile{toc}{\contentsline {subsection}{\numberline {\unhbox \voidb@x \hbox {V-A}}Selected Attributes}{5}}
\@writefile{toc}{\contentsline {subsection}{\numberline {\unhbox \voidb@x \hbox {V-B}}Interpreting \(\rho _l\), \(\rho _{nl}\), \(\rho _e\) }{5}}
\citation{crutchfield1982crime}
\citation{schmid1960urban}
\citation{kelly2000inequality}
\citation{raphael2001identifying}
\citation{farrington1986unemployment}
\citation{edmark2005unemployment}
\citation{ehrlich1975relation}
\citation{lochner2007education}
\@writefile{lot}{\contentsline {table}{\numberline {I}{\ignorespaces Evaluation Coefficients for all Selected Attributes}}{6}}
\newlabel{evaluation_correlation_coefficients}{{I}{6}}
\@writefile{toc}{\contentsline {subsection}{\numberline {\unhbox \voidb@x \hbox {V-C}}Attributes with Negative Correlation}{6}}
\@writefile{lot}{\contentsline {table}{\numberline {II}{\ignorespaces Attributes that Correlate with Low Crime Rates}}{6}}
\newlabel{low_crime_attribs}{{II}{6}}
\@writefile{toc}{\contentsline {subsection}{\numberline {\unhbox \voidb@x \hbox {V-D}}Attributes with Positive Correlation}{6}}
\@writefile{toc}{\contentsline {subsection}{\numberline {\unhbox \voidb@x \hbox {V-E}}Algorithm Results}{6}}
\bibdata{mybib}
\bibcite{wang2013learning}{1}
\bibcite{mcclendon}{2}
\bibcite{kang2017prediction}{3}
\bibcite{kotsiantis2007supervised}{4}
\bibcite{hall2009weka}{5}
\bibcite{vancouverOpenData}{6}
\bibcite{kubrin2003new}{7}
\bibcite{farrington2017integrated}{8}
\bibcite{brantingham1981environmental}{9}
\bibcite{cai2006estimating}{10}
\bibcite{witten2016data}{11}
\bibcite{pearsoncorrelation}{12}
\bibcite{willmott2005advantages}{13}
\bibcite{all_classes_2018}{14}
\bibcite{Holmes1999}{15}
\@writefile{lot}{\contentsline {table}{\numberline {III}{\ignorespaces Attributes that Correlate with High Crime Rates}}{7}}
\newlabel{high_crime_attribs}{{III}{7}}
\@writefile{lot}{\contentsline {table}{\numberline {IV}{\ignorespaces Algorithm Performance Evaluation}}{7}}
\newlabel{algorithm_results}{{IV}{7}}
\@writefile{toc}{\contentsline {section}{\numberline {VI}Conclusion}{7}}
\@writefile{toc}{\contentsline {section}{References}{7}}
\bibcite{Quinlan1992}{16}
\bibcite{Wang1997}{17}
\bibcite{crutchfield1982crime}{18}
\bibcite{schmid1960urban}{19}
\bibcite{kelly2000inequality}{20}
\bibcite{raphael2001identifying}{21}
\bibcite{farrington1986unemployment}{22}
\bibcite{edmark2005unemployment}{23}
\bibcite{ehrlich1975relation}{24}
\bibcite{lochner2007education}{25}
\bibstyle{ieeetr}
