key,lat,lon,count
3035068259,49.2757503,-123.1272852,0
876676696,49.2930696,-123.1440911,0
127536121,49.2884076,-123.1233650,60
472525915,49.2858793,-123.1353635,23
3050984826,49.2815910,-123.1275469,0
940472903,49.2762768,-123.1313189,0
553185838,49.2862867,-123.1143889,49
4561694667,49.2838253,-123.1201847,140
3673074099,49.2930513,-123.1428025,0
2405683337,49.2874861,-123.1132308,0
2405683271,49.2872537,-123.1130749,0
3633628729,49.2887864,-123.1180294,0
4690226891,49.2910676,-123.1313616,0
2405683188,49.2786107,-123.1088813,0
553101368,49.2887722,-123.1258172,10
553185741,49.2849854,-123.1163031,14
4472709674,49.2770990,-123.1164700,7
631379265,49.2870285,-123.1390549,0
3678184485,49.2935944,-123.1354013,0
3680208000,49.2792941,-123.1371543,19
2405683329,49.2874678,-123.1131921,0
1712253709,49.2852965,-123.1177903,111
3673125458,49.2861297,-123.1425060,65
553101290,49.2821484,-123.1328116,124
1852003688,49.2752579,-123.1434114,0
472525909,49.2877133,-123.1274608,7
2515680179,49.2857746,-123.1079161,0
3454957724,49.2756471,-123.1332412,0
2320273633,49.2856737,-123.1208761,0
2078134611,49.2809585,-123.1243166,19
3680165362,49.2894599,-123.1441883,0
2405683237,49.2787278,-123.1081158,0
2465886281,49.2800849,-123.1284809,0
5975999691,49.2834385,-123.1205857,54
6167558294,49.2789234,-123.1157931,27
3476051317,49.2855316,-123.1121820,67
5716199782,49.2817831,-123.1291636,0
291954248,49.2866167,-123.1365321,0
1316792517,49.2746534,-123.1212613,0
969693986,49.2755211,-123.1431097,0
1520282381,49.2821932,-123.1153920,0
29554445,49.2925932,-123.1337407,15
4322319278,49.2876315,-123.1280686,1
988415759,49.2892928,-123.1221982,22
257878784,49.2881311,-123.1154843,88
2580238547,49.2876998,-123.1128253,0
250760635,49.2831291,-123.1191150,19
29554439,49.2793371,-123.1132461,34
4357919483,49.2773178,-123.1201385,90
320274487,49.2787430,-123.1297089,16
3476051313,49.2768958,-123.1325705,0
3680209533,49.2807414,-123.1381912,0
3501882197,49.2866144,-123.1279260,17
1308502896,49.2934729,-123.1386009,0
3072749015,49.2887894,-123.1257617,0
2405683335,49.2874818,-123.1132208,0
553185276,49.2775619,-123.1148988,0
1308503289,49.2750140,-123.1313841,0
3673125479,49.2841752,-123.1426164,0
3673083133,49.2932032,-123.1400890,0
3035068260,49.2757154,-123.1286852,0
553185687,49.2824548,-123.1104618,0
2405683258,49.2872053,-123.1130980,0
3035068255,49.2755090,-123.1283805,0
1316732237,49.2761465,-123.1341320,0
430375605,49.2860750,-123.1211573,5
3456455744,49.2767560,-123.1361200,0
553185843,49.2849984,-123.1124062,0
3673125450,49.2815720,-123.1395150,21
2405683301,49.2873694,-123.1130879,0
553185439,49.2809074,-123.1156783,2
2405683344,49.2876394,-123.1136607,0
1316792538,49.2749394,-123.1205931,0
964535920,49.2841310,-123.1427522,0
1693991960,49.2800347,-123.1255994,0
278079896,49.2852959,-123.1280562,15
250760612,49.2842780,-123.1173860,24
3680208006,49.2806521,-123.1382043,1
5141198825,49.2819295,-123.1106528,0
2327787706,49.2878934,-123.1145581,0
616492084,49.2764414,-123.1283485,24
268528518,49.2929132,-123.1464290,0
1848107252,49.2766510,-123.1189691,14
1520230919,49.2839398,-123.1168956,480
1308502631,49.2784490,-123.1371177,0
553101322,49.2830611,-123.1246357,8
1934671558,49.2791015,-123.1123436,0
3756785064,49.2808905,-123.1108974,0
553185692,49.2837032,-123.1124299,5
3072748992,49.2859974,-123.1211899,0
4322319281,49.2874638,-123.1278417,0
357581505,49.2801403,-123.1275906,13
3734737401,49.2831880,-123.1192055,42
616492165,49.2926471,-123.1305727,10
1308502807,49.2934198,-123.1338061,0
553076858,49.2852694,-123.1311919,37
616492204,49.2868360,-123.1202986,0
3680165361,49.2895316,-123.1441912,0
4357914293,49.2790905,-123.1193960,6
2405683155,49.2779603,-123.1102093,0
1520282434,49.2825261,-123.1159580,0
2405683254,49.2871912,-123.1131084,0
1692226735,49.2843316,-123.1136081,0
1313402045,49.2850465,-123.1144749,6
616492170,49.2930459,-123.1330903,7
430041684,49.2886737,-123.1311052,60
2720460872,49.2857707,-123.1197304,0
5464008302,49.2832433,-123.1159825,0
1712253724,49.2872972,-123.1222019,0
4706105185,49.2817076,-123.1292024,0
3673083149,49.2930494,-123.1471752,0
257879160,49.2825074,-123.1280205,61
2490635322,49.2813400,-123.1257676,1
286351073,49.2830592,-123.1396292,22
326057012,49.2883916,-123.1191072,25
3648161566,49.2769589,-123.1226956,8
1712253733,49.2877537,-123.1191712,11
286352089,49.2888215,-123.1256567,0
1308503064,49.2764806,-123.1332095,0
940472887,49.2753053,-123.1327446,0
4561694668,49.2836835,-123.1202170,9
278079899,49.2833821,-123.1129208,204
291954197,49.2915951,-123.1321659,12
5371938519,49.2848892,-123.1317807,17
3673083134,49.2929827,-123.1429421,0
3072749013,49.2887746,-123.1255855,0
3072748961,49.2883492,-123.1190606,0
2490635133,49.2773018,-123.1239858,1
1313402016,49.2813986,-123.1199007,57
553185375,49.2814078,-123.1187602,54
3035068252,49.2753932,-123.1280524,0
2078134618,49.2811417,-123.1227421,12
1692226733,49.2842690,-123.1135010,3
95205543,49.2935004,-123.1381986,1
271274085,49.2809383,-123.1224400,90
3648159813,49.2806834,-123.1271658,0
648495462,49.2903119,-123.1264101,0
472525924,49.2893792,-123.1300388,14
553101328,49.2829148,-123.1233536,111
38891243,49.2933840,-123.1383938,6
1320674258,49.2924384,-123.1438574,0
1308502930,49.2790782,-123.1370474,0
5262780332,49.2884347,-123.1408403,12
553185329,49.2806233,-123.1219440,0
2405683253,49.2871878,-123.1131112,0
1712253527,49.2773361,-123.1189394,3
4896217352,49.2791734,-123.1114920,0
4695181032,49.2792637,-123.1294610,167
3060065937,49.2807695,-123.1129959,1
5660052410,49.2844699,-123.1095983,0
3734737399,49.2830545,-123.1192292,6
2188770954,49.2851971,-123.1112068,0
320094074,49.2807003,-123.1381257,1
5004181101,49.2784709,-123.1127531,23
250760625,49.2812225,-123.1161545,91
3781537443,49.2761685,-123.1150511,9
472525821,49.2765535,-123.1317405,0
31311132,49.2751506,-123.1436907,0
631379266,49.2868781,-123.1393013,0
988415773,49.2898001,-123.1227853,0
553101305,49.2815480,-123.1254516,118
288989573,49.2861321,-123.1213679,0
553101275,49.2807241,-123.1349918,25
648495455,49.2903953,-123.1260422,0
3714350689,49.2775856,-123.1101558,0
2405683277,49.2872769,-123.1130701,0
5034671780,49.2795287,-123.1196831,18
278079902,49.2834083,-123.1109652,0
5138816302,49.2764262,-123.1169939,0
553076738,49.2840413,-123.1357414,13
3748704663,49.2811884,-123.1104450,0
553185505,49.2820427,-123.1139554,0
5045042185,49.2880041,-123.1149893,1
1313402145,49.2883915,-123.1188103,0
2405683330,49.2874703,-123.1131967,0
5371938515,49.2849137,-123.1317869,3
3935242629,49.2763325,-123.1249268,2
1520282400,49.2823506,-123.1157089,0
6167558295,49.2804980,-123.1153253,22
3734737400,49.2830799,-123.1190394,37
176194870,49.2846620,-123.1129077,101
2405683339,49.2874918,-123.1132455,0
2286024010,49.2813863,-123.1178627,42
4472709678,49.2797115,-123.1205342,0
3072749006,49.2862147,-123.1215945,0
326057184,49.2903669,-123.1281056,16
4322319276,49.2876689,-123.1279462,2
3714338134,49.2797806,-123.1106608,0
3633628728,49.2888076,-123.1181955,0
3673125473,49.2847327,-123.1428012,0
553076782,49.2869719,-123.1359946,21
4690281919,49.2919504,-123.1361849,36
1313408423,49.2848574,-123.1217665,20
3721846847,49.2889732,-123.1348235,0
940472940,49.2827055,-123.1148822,8
940472925,49.2823884,-123.1143959,17
127531363,49.2898533,-123.1437026,14
2465886452,49.2805760,-123.1314901,13
1308502874,49.2781416,-123.1369346,0
4690225088,49.2923028,-123.1332928,0
4443064011,49.2782925,-123.1343556,16
1384876421,49.2757756,-123.1273241,0
357581401,49.2763018,-123.1216768,52
2515680225,49.2866616,-123.1115281,0
250760593,49.2795059,-123.1169746,33
278079911,49.2782696,-123.1343902,19
988415731,49.2900025,-123.1229939,0
3819846872,49.2749785,-123.1397827,0
265688585,49.2783717,-123.1116802,0
553185183,49.2772349,-123.1231202,116
4224509022,49.2818637,-123.1266473,1
940472921,49.2815117,-123.1232983,1
553185460,49.2827715,-123.1166871,5
250760631,49.2859642,-123.1148632,62
5371939621,49.2848786,-123.1317327,1
3678167252,49.2886606,-123.1427984,0
553185466,49.2846008,-123.1178837,11
3680208019,49.2791247,-123.1369881,0
472525828,49.2776846,-123.1335052,34
2405683184,49.2785862,-123.1089435,0
1319731209,49.2834894,-123.1043341,0
1308502730,49.2944152,-123.1366301,0
3673125452,49.2869120,-123.1423629,23
430375459,49.2886317,-123.1288845,39
3654501021,49.2826928,-123.1217075,42
3060065940,49.2806334,-123.1129499,2
3648161564,49.2759091,-123.1242895,7
430375659,49.2904063,-123.1234491,2
553185453,49.2821993,-123.1156733,0
553185055,49.2751341,-123.1263370,0
286350480,49.2845297,-123.1397195,18
2577878427,49.2872555,-123.1133817,0
876509249,49.2757148,-123.1303455,0
553101298,49.2842663,-123.1296445,22
553185369,49.2804015,-123.1183641,39
430040559,49.2762047,-123.1407373,0
648495467,49.2903452,-123.1260583,0
553076743,49.2851924,-123.1418159,4
2405683321,49.2874433,-123.1131536,0
3680209532,49.2775917,-123.1354190,46
5371938520,49.2849304,-123.1317706,0
3932918975,49.2885109,-123.1348781,0
3673074114,49.2934009,-123.1476417,0
1308502705,49.2787556,-123.1374261,0
29554450,49.2773166,-123.1090281,0
4789103190,49.2859147,-123.1353094,10
1386522822,49.2800688,-123.1256550,36
250760618,49.2779815,-123.1210387,18
38891268,49.2914801,-123.1354366,87
616492195,49.2918040,-123.1286157,0
339937498,49.2810970,-123.1301441,20
3677509223,49.2875394,-123.1411815,60
988211316,49.2888479,-123.1181674,0
5075786166,49.2808046,-123.1166096,0
5034671781,49.2794830,-123.1197522,64
5697946441,49.2846935,-123.1275600,15
553185428,49.2815432,-123.1166517,10
2405683216,49.2787034,-123.1085244,0
2383770174,49.2744186,-123.1218284,0
5265175792,49.2822140,-123.1150580,2
2879023343,49.2782389,-123.1187438,21
3680251771,49.2765838,-123.1345750,64
1520230748,49.2827973,-123.1196229,0
5371928868,49.2883301,-123.1370824,5
5138816304,49.2765038,-123.1168458,0
4912116146,49.2810011,-123.1389298,0
3673125476,49.2843395,-123.1427033,0
3678184488,49.2935744,-123.1351097,0
3721846840,49.2887338,-123.1355326,0
268528506,49.2930410,-123.1442462,0
278079900,49.2827627,-123.1119223,0
5618456818,49.2835656,-123.1046098,0
4472709677,49.2797272,-123.1203381,94
3000018900,49.2792522,-123.1230287,302
4323762302,49.2845037,-123.1212263,20
940472874,49.2862514,-123.1162825,0
3072748993,49.2852805,-123.1198009,106
876509251,49.2759763,-123.1308469,0
969693991,49.2757943,-123.1419585,0
553076736,49.2836783,-123.1362871,31
3673074091,49.2929853,-123.1421822,0
3714350688,49.2774146,-123.1095659,0
2487256236,49.2800374,-123.1323190,95
1712253523,49.2762008,-123.1247301,0
3680208001,49.2806466,-123.1380441,36
4952051161,49.2820373,-123.1273207,12
2405683292,49.2873354,-123.1130743,0
3351594047,49.2782760,-123.1370700,0
2405683326,49.2874601,-123.1131786,0
1284770760,49.2756864,-123.1168498,0
1319731165,49.2800945,-123.1265669,0
3654501018,49.2825856,-123.1218688,41
5975999693,49.2828856,-123.1197163,0
3673074094,49.2929154,-123.1419193,0
5251394287,49.2830996,-123.1290879,2
3072749010,49.2889382,-123.1256590,0
553185473,49.2832904,-123.1159128,4
5251383254,49.2820207,-123.1153237,20
3788677304,49.2923442,-123.1436729,0
3160523081,49.2876786,-123.1317064,3
5251383257,49.2820759,-123.1154761,0
630162933,49.2811909,-123.1399512,0
250760637,49.2798858,-123.1240231,60
553185650,49.2821334,-123.1119372,0
257879162,49.2831915,-123.1269797,37
1712253706,49.2823358,-123.1383057,0
549667235,49.2843922,-123.1352138,30
3035068261,49.2760158,-123.1288426,0
96676092,49.2837384,-123.1256654,1
553076731,49.2841179,-123.1380330,11
3678167256,49.2890197,-123.1423169,2
1308502879,49.2939053,-123.1335367,0
553101374,49.2882128,-123.1236561,26
5476797120,49.2795489,-123.1124872,0
660080605,49.2764769,-123.1412944,0
1520230970,49.2849784,-123.1153642,30
271274082,49.2790309,-123.1194848,42
4323762299,49.2843357,-123.1212349,0
1308503176,49.2778794,-123.1348550,0
1520282428,49.2824787,-123.1158453,0
288982291,49.2798551,-123.1105481,0
4952051160,49.2816931,-123.1278133,0
5697946446,49.2845220,-123.1278813,4
2405683245,49.2871615,-123.1131371,0
553185346,49.2799646,-123.1209223,58
1308503280,49.2781889,-123.1368279,0
5464008273,49.2819351,-123.1209406,149
38891261,49.2893578,-123.1386321,30
2405683294,49.2873430,-123.1130766,0
3673074111,49.2930133,-123.1430427,0
553101341,49.2834519,-123.1215250,25
2465886617,49.2814320,-123.1296339,4
648486454,49.2828433,-123.1253071,0
1319731247,49.2846685,-123.1040787,0
631803409,49.2826431,-123.1249346,0
3803116374,49.2759802,-123.1270109,10
2405683179,49.2785502,-123.1090233,0
553185336,49.2793451,-123.1199606,45
1316792530,49.2747564,-123.1208939,0
472525921,49.2865730,-123.1343032,10
3072748949,49.2888809,-123.1179146,0
3675682191,49.2924283,-123.1435005,0
29554441,49.2815357,-123.1099822,0
1313408429,49.2854017,-123.1226078,19
630162929,49.2810846,-123.1389951,0
4322319277,49.2876549,-123.1281094,1
3476051318,49.2879526,-123.1176944,6
553076741,49.2858883,-123.1407733,45
5725675130,49.2807149,-123.1274361,0
1308502974,49.2758692,-123.1307937,0
5004181104,49.2773018,-123.1144968,0
3438280930,49.2774738,-123.1419629,0
638861829,49.2773252,-123.1318478,17
940472905,49.2833333,-123.1158474,5
2405683311,49.2874084,-123.1131153,0
2490635289,49.2809639,-123.1266940,0
5371938517,49.2849240,-123.1317032,0
3072749017,49.2887833,-123.1257942,6
559821505,49.2928503,-123.1364940,0
3488072840,49.2859308,-123.1201555,0
553101287,49.2793281,-123.1327859,12
320093541,49.2901423,-123.1312095,12
5371928863,49.2883737,-123.1370790,0
4896217351,49.2792015,-123.1115365,0
427492690,49.2782972,-123.1115670,0
1352174878,49.2899599,-123.1266742,11
320274483,49.2771504,-123.1261850,216
2405683322,49.2874462,-123.1131576,0
988415794,49.2899823,-123.1227331,0
940472939,49.2859133,-123.1167953,17
268528507,49.2930957,-123.1437052,0
1520282394,49.2822764,-123.1155625,0
1520282432,49.2825697,-123.1160499,8
3035068247,49.2753714,-123.1279519,0
553185392,49.2840156,-123.1187479,35
553076796,49.2880025,-123.1375691,3
5977944966,49.2789243,-123.1307063,35
4357914292,49.2787787,-123.1189133,13
616492076,49.2756882,-123.1271896,0
5371939625,49.2849321,-123.1317150,0
940472908,49.2843055,-123.1173438,12
2405683168,49.2780264,-123.1100609,0
3678167251,49.2886463,-123.1429384,5
4129028064,49.2836016,-123.1047911,0
553076860,49.2883634,-123.1338885,11
3673125470,49.2894965,-123.1442446,0
5469923464,49.2851316,-123.1331520,8
2887816023,49.2774938,-123.1198720,6
5138816303,49.2764337,-123.1169500,0
1319731170,49.2801946,-123.1265782,0
1313402122,49.2876883,-123.1163080,4
286316085,49.2854430,-123.1336339,26
3501882198,49.2869644,-123.1273935,2
559821583,49.2908060,-123.1333348,35
472211521,49.2911126,-123.1359899,10
38891271,49.2932002,-123.1359382,12
553185710,49.2862871,-123.1182965,55
3678188771,49.2925312,-123.1336429,8
268528515,49.2935024,-123.1479411,0
5141211225,49.2775091,-123.1177024,41
3060065938,49.2807174,-123.1129258,0
5138816307,49.2767449,-123.1171259,9
3721846838,49.2894632,-123.1344330,22
3690762173,49.2819853,-123.1304541,3
2515680229,49.2867785,-123.1113861,0
5371939622,49.2848820,-123.1317685,0
245808020,49.2853441,-123.1118900,0
1308502837,49.2790376,-123.1371149,0
5075786159,49.2807960,-123.1159483,0
245719299,49.2871231,-123.1170467,40
286350568,49.2859388,-123.1375873,33
3673083144,49.2934666,-123.1477106,0
3060065941,49.2801417,-123.1136821,0
616492055,49.2760116,-123.1337771,0
553101369,49.2868062,-123.1214586,2
3673083153,49.2929774,-123.1468308,0
2405683078,49.2762882,-123.1140805,0
430375429,49.2918145,-123.1286504,0
629344416,49.2930706,-123.1429471,0
3456442871,49.2763474,-123.1354147,0
291954244,49.2894388,-123.1322839,81
430375277,49.2867066,-123.1259065,75
278079901,49.2840287,-123.1119333,0
553185172,49.2755587,-123.1237487,0
553101370,49.2861134,-123.1225410,0
2405683265,49.2872309,-123.1130835,0
2405683244,49.2871591,-123.1131399,0
3803116361,49.2760753,-123.1271668,44
553101323,49.2842577,-123.1253715,111
3907197763,49.2810940,-123.1291108,0
2985508768,49.2791202,-123.1120098,0
2286024011,49.2817008,-123.1183258,3
3680176519,49.2847072,-123.1428002,27
3675826325,49.2846553,-123.1106257,0
964535930,49.2830250,-123.1419592,0
3488072842,49.2860975,-123.1212529,0
357551017,49.2754538,-123.1268305,0
1386522819,49.2797799,-123.1252061,0
553101273,49.2800410,-123.1359987,27
1934671559,49.2800370,-123.1120262,0
3673074093,49.2931536,-123.1474010,0
2465886510,49.2809730,-123.1289258,0
31311133,49.2750524,-123.1441443,0
3188044010,49.2904550,-123.1260773,0
1319731346,49.2890342,-123.1234869,10
3438280931,49.2775153,-123.1419293,0
471262863,49.2923303,-123.1399744,10
2915527696,49.2775716,-123.1125363,0
3035068253,49.2761654,-123.1287706,0
1316732246,49.2764814,-123.1343465,96
1320674300,49.2929364,-123.1456827,0
3633628731,49.2887545,-123.1185125,0
2405683232,49.2787248,-123.1083335,0
631379267,49.2868851,-123.1391798,0
3673074110,49.2930881,-123.1434081,0
553076881,49.2890267,-123.1305716,11
3680165368,49.2886421,-123.1428275,0
5371928867,49.2883215,-123.1370546,0
553076872,49.2882807,-123.1294079,27
988415792,49.2902358,-123.1260062,0
1308502958,49.2938463,-123.1332306,0
2320273634,49.2849778,-123.1219555,153
2405683270,49.2872499,-123.1130761,0
988415781,49.2900291,-123.1229074,0
357581415,49.2752492,-123.1232705,0
5371938518,49.2849001,-123.1316975,0
3072748945,49.2883600,-123.1188840,0
1308502793,49.2921240,-123.1316089,3
38891264,49.2900594,-123.1375756,39
472211532,49.2904100,-123.1370478,94
146537847,49.2810961,-123.1125113,29
3060065944,49.2801277,-123.1137277,0
2405683323,49.2874490,-123.1131616,0
616492183,49.2911889,-123.1275948,4
3072748947,49.2884006,-123.1188889,0
3675681159,49.2921579,-123.1429543,0
2580238544,49.2875021,-123.1130976,0
5975999688,49.2828127,-123.1196048,0
286351675,49.2814044,-123.1370640,19
3188044006,49.2902943,-123.1261470,0
553101279,49.2773341,-123.1318343,0
3677509222,49.2876089,-123.1412793,2
3072748940,49.2868871,-123.1116535,0
320204264,49.2857998,-123.1331070,44
286351352,49.2862313,-123.1402652,51
357581597,49.2794794,-123.1100303,0
327411270,49.2854326,-123.1120254,0
291954245,49.2905556,-123.1305778,38
616492202,49.2866014,-123.1199442,0
553185059,49.2761807,-123.1247000,3
1308502797,49.2787067,-123.1375357,0
2383770181,49.2745762,-123.1221029,0
969761186,49.2750745,-123.1450545,0
553185225,49.2776850,-123.1205740,13
2327787587,49.2892403,-123.1220402,14
1712253519,49.2760553,-123.1245105,0
988212158,49.2878705,-123.1144748,0
471262865,49.2930273,-123.1389288,22
4241623690,49.2886619,-123.1254146,12
2405683304,49.2873839,-123.1130965,0
472525938,49.2844670,-123.1375067,26
4224509021,49.2815900,-123.1266568,50
553185608,49.2843262,-123.1134148,186
2490635293,49.2810105,-123.1254319,0
629344412,49.2930115,-123.1444168,0
257878725,49.2837646,-123.1200950,28
5652373761,49.2759669,-123.1309464,0
2577878426,49.2874627,-123.1134677,0
339937532,49.2745342,-123.1221655,0
553076805,49.2887058,-123.1365067,26
5464008295,49.2819071,-123.1172141,0
553076834,49.2907506,-123.1396584,34
4366718132,49.2843171,-123.1088010,0
5251383253,49.2820469,-123.1153007,0
2985506752,49.2785136,-123.1144730,5
4224509024,49.2821038,-123.1263089,8
4322460351,49.2875920,-123.1280172,0
1308502776,49.2765912,-123.1154857,65
1344158154,49.2863178,-123.1098710,0
5371938514,49.2848789,-123.1317533,0
3659616143,49.2873745,-123.1134139,0
553185570,49.2833819,-123.1138238,16
2405683302,49.2873767,-123.1130920,0
553076726,49.2827123,-123.1401523,11
4357919488,49.2764787,-123.1155214,0
326057064,49.2896570,-123.1231396,2
603388897,49.2774772,-123.1098314,0
2577878428,49.2871164,-123.1134094,2
3072749014,49.2887899,-123.1257049,0
5697946444,49.2844483,-123.1275076,19
1308502651,49.2934988,-123.1354587,0
326056916,49.2753888,-123.1269261,0
2405683251,49.2871810,-123.1131172,0
3654501225,49.2832093,-123.1226725,13
2985508767,49.2790793,-123.1121179,0
5075786163,49.2806531,-123.1160677,0
2405683273,49.2872614,-123.1130729,0
257151296,49.2796782,-123.1322548,21
257879163,49.2857321,-123.1231233,40
553101317,49.2828642,-123.1274835,16
2078134680,49.2827942,-123.1239415,1
3035068244,49.2760977,-123.1288309,0
257879164,49.2864621,-123.1220300,27
1308502747,49.2756103,-123.1323007,0
553185211,49.2782916,-123.1215246,14
250760611,49.2813449,-123.1198222,552
553076752,49.2900347,-123.1407352,23
1308503294,49.2938031,-123.1336028,0
3072748943,49.2869509,-123.1117892,0
3678167257,49.2890429,-123.1424319,7
660080624,49.2764683,-123.1400861,0
286350565,49.2848832,-123.1391887,121
3188044002,49.2904550,-123.1263190,0
553185024,49.2767547,-123.1297413,6
2405683334,49.2874796,-123.1132158,0
2078134672,49.2826604,-123.1237480,27
616491981,49.2913795,-123.1438888,6
1564462520,49.2830728,-123.1172256,446
553101335,49.2832252,-123.1218522,0
38891236,49.2919804,-123.1404992,15
3438280924,49.2766030,-123.1408628,0
268528183,49.2828766,-123.1250902,0
27699323,49.2766564,-123.1332562,8
3035068246,49.2759175,-123.1288158,0
1520282357,49.2820718,-123.1152939,0
553076830,49.2924874,-123.1423637,37
648495461,49.2904294,-123.1263425,0
5262780334,49.2885779,-123.1406383,16
631803406,49.2824309,-123.1321903,4
3673125469,49.2825218,-123.1409663,7
1316792514,49.2745666,-123.1215744,0
3678184491,49.2936429,-123.1352211,0
2188770944,49.2849833,-123.1113385,0
5004181106,49.2765543,-123.1156399,2
648495446,49.2889076,-123.1256729,0
3673074097,49.2933266,-123.1393561,0
5716199787,49.2818237,-123.1291738,0
1520282373,49.2821329,-123.1153126,0
553185535,49.2837180,-123.1143357,46
5251383252,49.2821608,-123.1153389,0
1611301915,49.2874304,-123.1129090,0
1316792557,49.2753179,-123.1188698,0
629344399,49.2934976,-123.1478125,0
553185699,49.2840581,-123.1129926,4
2490635271,49.2807612,-123.1270391,0
553185299,49.2778965,-123.1144762,0
3072749002,49.2858614,-123.1199306,0
2465886269,49.2800217,-123.1277707,76
3714350693,49.2772164,-123.1070393,0
3438280936,49.2764299,-123.1412283,0
988415818,49.2891460,-123.1217330,0
1308503069,49.2930780,-123.1332771,0
271274083,49.2796549,-123.1204475,240
3659616144,49.2871890,-123.1133871,0
2405683247,49.2871678,-123.1131301,0
1572442729,49.2873730,-123.1130899,0
940472907,49.2848661,-123.1182928,11
5371928874,49.2883460,-123.1370934,5
553101358,49.2863531,-123.1264346,280
553076879,49.2883055,-123.1316616,5
3438280935,49.2775286,-123.1416509,0
2985508770,49.2795823,-123.1113185,0
3188044003,49.2903338,-123.1263278,0
286351072,49.2838087,-123.1407859,16
559821518,49.2940429,-123.1361041,0
320204266,49.2825344,-123.1322900,6
553185283,49.2779063,-123.1154258,68
286350569,49.2862255,-123.1371523,11
3734737402,49.2832071,-123.1189977,0
988415720,49.2898111,-123.1227225,9
3072748998,49.2858721,-123.1211400,0
2405683140,49.2778436,-123.1111813,0
278079912,49.2879435,-123.1407711,21
250760604,49.2823534,-123.1144514,204
2405683053,49.2758980,-123.1146084,0
1308502725,49.2785006,-123.1369952,1
553185511,49.2827621,-123.1128874,34
326175009,49.2877994,-123.1139907,0
2405683314,49.2874216,-123.1131280,0
1308502847,49.2766089,-123.1344853,0
1308502910,49.2803973,-123.1386843,0
361211088,49.2827174,-123.1249901,0
2405683257,49.2872017,-123.1131005,0
4951528673,49.2784471,-123.1303607,26
1313408416,49.2847968,-123.1229602,77
3678167254,49.2889284,-123.1423138,0
5075786169,49.2806830,-123.1161144,0
1308502712,49.2779186,-123.1349232,0
245808197,49.2750656,-123.1274328,0
5141198830,49.2793812,-123.1127718,0
5251383251,49.2823717,-123.1157393,0
357551028,49.2773675,-123.1297315,9
250760617,49.2820120,-123.1208250,132
5251383255,49.2824219,-123.1157798,0
2405683320,49.2874403,-123.1131497,0
553185307,49.2795753,-123.1235365,35
553185544,49.2840224,-123.1148110,157
3072748941,49.2868318,-123.1115248,0
1313402047,49.2853944,-123.1139680,16
29554459,49.2921853,-123.1343622,32
2465886397,49.2805309,-123.1278309,0
1335341172,49.2785513,-123.1154891,46
5921787068,49.2797776,-123.1116417,0
553185813,49.2856297,-123.1153442,39
553185455,49.2826632,-123.1159088,26
38891244,49.2896805,-123.1412680,13
660080631,49.2766039,-123.1394226,0
3072748950,49.2888846,-123.1180550,0
1316732257,49.2767710,-123.1334390,0
940472922,49.2865843,-123.1157970,3
988211483,49.2879020,-123.1169712,84
616491979,49.2930920,-123.1472813,0
2879023344,49.2782979,-123.1186545,0
553185123,49.2768371,-123.1256991,90
2078134668,49.2824997,-123.1239971,29
320094082,49.2763035,-123.1313596,11
29554451,49.2772427,-123.1081663,0
2078134641,49.2819494,-123.1248416,19
29554447,49.2874116,-123.1200207,21
2985506427,49.2772043,-123.1166306,9
3456455746,49.2757656,-123.1360932,0
6167558293,49.2795518,-123.1167836,7
3714350687,49.2777290,-123.1104901,0
4789103193,49.2883042,-123.1369677,10
5697946445,49.2846040,-123.1277510,8
357551030,49.2780254,-123.1307892,7
2405683347,49.2877365,-123.1139788,0
4323762300,49.2843423,-123.1209733,0
638861826,49.2766641,-123.1308079,27
553076855,49.2861614,-123.1325678,3
2487256233,49.2800195,-123.1322951,0
553185554,49.2843438,-123.1153088,4
2405683338,49.2874881,-123.1132359,0
2188770957,49.2853288,-123.1107974,0
1308503219,49.2789473,-123.1371371,0
3675682180,49.2924569,-123.1438304,0
3654501024,49.2830050,-123.1221856,0
1712253729,49.2875266,-123.1184057,23
3680165371,49.2880959,-123.1424246,1
5075786165,49.2807327,-123.1164970,0
3678167479,49.2921751,-123.1376272,0
5749982921,49.2801264,-123.1206801,0
470407318,49.2930170,-123.1399452,0
553076792,49.2883651,-123.1380992,1
964535968,49.2840536,-123.1427986,0
3167955541,49.2931258,-123.1329731,2
3453439127,49.2774108,-123.1188221,0
553101350,49.2849662,-123.1285737,59
553076714,49.2834555,-123.1413082,24
3673125480,49.2862547,-123.1423738,0
553185143,49.2797941,-123.1270580,15
553185391,49.2834459,-123.1196018,1
988415836,49.2900086,-123.1227741,0
2326798071,49.2844172,-123.1245415,60
29554455,49.2898009,-123.1294014,16
2915527697,49.2778013,-123.1129040,0
3666252455,49.2876640,-123.1414539,2
3072748960,49.2883015,-123.1189983,0
3473137579,49.2760622,-123.1355832,0
1308502572,49.2924519,-123.1321356,0
3678167258,49.2890398,-123.1422261,3
553076733,49.2841635,-123.1402747,12
631379272,49.2887116,-123.1376108,12
127536118,49.2878550,-123.1241906,82
2915527698,49.2780493,-123.1133008,1
3456446213,49.2770813,-123.1325396,17
430375669,49.2858933,-123.1211593,0
5371938513,49.2848826,-123.1317166,1
2405683282,49.2872965,-123.1130689,0
2405683291,49.2873315,-123.1130733,0
988211961,49.2880111,-123.1176564,0
1416010202,49.2868595,-123.1162778,0
127536115,49.2825641,-123.1321937,1
5464008303,49.2829290,-123.1155021,1
553185017,49.2759219,-123.1307024,1
1308503335,49.2773832,-123.1319233,4
326056934,49.2871049,-123.1146784,2
2078134628,49.2814009,-123.1231329,16
2490635273,49.2808197,-123.1269493,1
3654501229,49.2837043,-123.1219284,32
3035068251,49.2760190,-123.1298061,0
245809354,49.2803891,-123.1312072,119
245807891,49.2821319,-123.1109424,0
1316792578,49.2756886,-123.1194315,0
631379270,49.2862303,-123.1370831,0
616492243,49.2887652,-123.1174450,9
2490635087,49.2769028,-123.1245925,21
2405683287,49.2873160,-123.1130703,0
4789103188,49.2773425,-123.1423088,0
616492197,49.2918076,-123.1286289,0
1320674165,49.2874477,-123.1423648,0
127536116,49.2839055,-123.1301788,28
3680209526,49.2830383,-123.1417619,6
38891250,49.2910847,-123.1391558,16
2405683300,49.2873657,-123.1130860,0
1308502590,49.2805851,-123.1383134,0
1712253707,49.2852342,-123.1178840,21
4934809613,49.2877082,-123.1381603,12
3072748997,49.2859213,-123.1211794,0
38891233,49.2912706,-123.1415638,18
3932918977,49.2886004,-123.1349659,0
5004181100,49.2787565,-123.1123152,13
3781537444,49.2763081,-123.1152481,0
357581438,49.2765093,-123.1251910,79
3648159815,49.2801031,-123.1275334,0
5597130984,49.2825763,-123.1102717,0
2078134626,49.2812985,-123.1238051,17
29554458,49.2940737,-123.1373180,0
3673083141,49.2930423,-123.1430499,0
278079914,49.2771453,-123.1165406,10
2405683341,49.2875317,-123.1133509,0
940472896,49.2805102,-123.1114602,0
2405683255,49.2871947,-123.1131057,0
291954224,49.2842133,-123.1328043,19
1572442738,49.2875543,-123.1129372,0
2405683289,49.2873226,-123.1130713,0
1352174845,49.2896460,-123.1255742,0
1313402013,49.2803371,-123.1215053,136
1308502901,49.2934949,-123.1338061,0
2405683252,49.2871844,-123.1131142,0
1308502715,49.2762704,-123.1356857,0
1308503153,49.2789925,-123.1371371,0
553185264,49.2768088,-123.1160278,5
5620000471,49.2821780,-123.1157038,0
38891266,49.2907878,-123.1364789,50
1934671566,49.2792016,-123.1124982,31
1313402020,49.2825401,-123.1182098,808
250760595,49.2805803,-123.1151985,67
2405683199,49.2786595,-123.1087291,0
3673083151,49.2930040,-123.1413175,0
3060065943,49.2801823,-123.1138851,1
127539905,49.2859942,-123.1269709,444
1712253720,49.2870972,-123.1218984,0
553076877,49.2875518,-123.1304947,8
3072748944,49.2882348,-123.1185786,2
3648161567,49.2780104,-123.1210840,14
2405683148,49.2779065,-123.1103689,0
553076721,49.2817566,-123.1365537,48
553185777,49.2862740,-123.1163196,1
553076839,49.2838625,-123.1333398,29
553185717,49.2868869,-123.1182805,0
291954254,49.2810897,-123.1344265,36
2490635263,49.2806503,-123.1273732,0
553076719,49.2810601,-123.1375833,30
286352044,49.2890261,-123.1255652,20
356992888,49.2764366,-123.1139548,0
2405683293,49.2873392,-123.1130754,0
3654501228,49.2833751,-123.1229315,159
1308502618,49.2785869,-123.1357189,42
553185832,49.2865202,-123.1147936,0
5620000472,49.2817825,-123.1162827,78
988211435,49.2884396,-123.1188668,0
3648161569,49.2801261,-123.1179322,17
553101375,49.2878430,-123.1231300,39
27699330,49.2760930,-123.1180791,0
38891259,49.2886650,-123.1396735,33
2405683349,49.2877664,-123.1140865,0
2465886218,49.2798250,-123.1280696,37
964535943,49.2814910,-123.1396618,1
3654501023,49.2828601,-123.1223311,14
326057171,49.2899868,-123.1267683,11
964535941,49.2830276,-123.1420248,0
3648161565,49.2766414,-123.1231882,0
1308502573,49.2785955,-123.1372679,0
3188044012,49.2902887,-123.1261980,11
1313402143,49.2882600,-123.1188948,0
553101326,49.2835749,-123.1264156,29
1316792637,49.2763400,-123.1184980,0
326175100,49.2879273,-123.1197561,27
988212046,49.2886197,-123.1174063,104
2031212760,49.2800917,-123.1121083,0
2405683328,49.2874653,-123.1131875,0
648495468,49.2902606,-123.1262804,0
940472935,49.2830155,-123.1153716,12
164087409,49.2824795,-123.1181171,107
278079893,49.2815725,-123.1233928,49
257879161,49.2846110,-123.1248376,204
357581435,49.2758884,-123.1242583,28
1308502744,49.2786875,-123.1375491,0
616492181,49.2911009,-123.1275342,11
2405683325,49.2874574,-123.1131742,0
2490635286,49.2808955,-123.1256056,0
5476807121,49.2794616,-123.1124457,0
3716322731,49.2759757,-123.1181398,0
472525939,49.2837722,-123.1385542,19
3072748948,49.2885053,-123.1187854,0
553076785,49.2862247,-123.1348356,19
616492125,49.2789588,-123.1107957,0
2465886265,49.2800047,-123.1242094,26
616492185,49.2913636,-123.1278700,15
553076807,49.2876816,-123.1349204,6
1308502650,49.2784574,-123.1370971,0
553076841,49.2845625,-123.1322711,28
430956941,49.2731670,-123.1283202,0
5371928865,49.2883381,-123.1370069,0
2078134621,49.2812639,-123.1247818,0
3456442865,49.2762637,-123.1353516,0
3188043999,49.2903970,-123.1263540,0
1520282346,49.2819774,-123.1153931,114
2405683249,49.2871743,-123.1131235,0
1313402043,49.2847023,-123.1149416,50
3654501226,49.2832167,-123.1228856,80
3678184486,49.2934377,-123.1350127,0
1308502970,49.2785442,-123.1375619,0
357581477,49.2788420,-123.1255932,187
709005500,49.2757641,-123.1420382,0
1319731171,49.2803869,-123.1268933,0
964535919,49.2831344,-123.1422028,0
245090967,49.2762864,-123.1404138,0
3173492870,49.2865912,-123.1346792,11
3716322729,49.2752491,-123.1187380,0
257878782,49.2866027,-123.1158250,45
4706105183,49.2820140,-123.1294059,10
2405683269,49.2872461,-123.1130774,0
553076884,49.2866453,-123.1290913,23
616492172,49.2934444,-123.1325137,0
4308069141,49.2828407,-123.1317783,25
2405683275,49.2872692,-123.1130713,0
2405683331,49.2874727,-123.1132014,0
3675681158,49.2928518,-123.1418251,2
3160523078,49.2868601,-123.1315261,6
3716322730,49.2758578,-123.1182548,0
2405683286,49.2873121,-123.1130698,0
3456455745,49.2759248,-123.1355756,0
553076734,49.2834150,-123.1390984,15
629759646,49.2928993,-123.1461538,0
1712253708,49.2852221,-123.1188619,0
286350566,49.2852222,-123.1386745,43
2031212597,49.2798861,-123.1118013,0
1231773870,49.2744868,-123.1253218,0
2327787593,49.2891927,-123.1218851,28
2078134629,49.2814843,-123.1244515,0
3648159820,49.2804530,-123.1271163,27
2405683333,49.2874774,-123.1132110,0
969693996,49.2755870,-123.1430859,0
327411523,49.2876808,-123.1161508,21
3666252462,49.2882308,-123.1424467,0
553185125,49.2791671,-123.1260932,19
3714350690,49.2779825,-123.1109977,0
278079913,49.2889050,-123.1424133,28
553185623,49.2818147,-123.1114322,0
2465886273,49.2800512,-123.1285347,0
1934671564,49.2792955,-123.1126435,0
1386522811,49.2794987,-123.1246054,2
286351818,49.2835188,-123.1338646,10
5371928869,49.2883643,-123.1370894,12
2465886298,49.2802018,-123.1245183,0
3673125460,49.2902758,-123.1454965,0
5749982922,49.2801860,-123.1205918,0
320093538,49.2911700,-123.1327953,33
4698636650,49.2886359,-123.1395746,18
271274084,49.2802940,-123.1214332,377
553185841,49.2872209,-123.1149329,31
2405683256,49.2871982,-123.1131030,0
1712253524,49.2766108,-123.1231385,5
3072748946,49.2883202,-123.1188497,0
5464008307,49.2830359,-123.1153415,36
6167558296,49.2805389,-123.1151317,372
2405683141,49.2778526,-123.1119017,0
3675682188,49.2924564,-123.1437278,0
5251383250,49.2824613,-123.1158186,0
2405683238,49.2787283,-123.1082611,0
2078134674,49.2826840,-123.1242334,0
320274496,49.2833173,-123.1368300,12
278079898,49.2840145,-123.1138854,248
1308502783,49.2762831,-123.1333400,0
291954255,49.2817859,-123.1333608,66
2405683243,49.2787293,-123.1081884,0
988415837,49.2900158,-123.1227853,0
553101281,49.2814498,-123.1296056,6
3438280926,49.2763986,-123.1410267,0
4789103191,49.2865827,-123.1364782,2
2405683162,49.2779966,-123.1101230,0
1319731265,49.2849649,-123.1184452,4
3677498752,49.2875782,-123.1413260,24
1712253732,49.2877623,-123.1211594,22
553185787,49.2865568,-123.1167635,0
1319731352,49.2911441,-123.1275639,2
430375639,49.2903105,-123.1261017,0
616492154,49.2919045,-123.1312000,0
616492206,49.2868450,-123.1203123,0
29554442,49.2868611,-123.1226253,0
616492271,49.2860434,-123.1088732,0
2405683299,49.2873619,-123.1130842,0
3675682189,49.2918789,-123.1443629,0
31311135,49.2750498,-123.1448216,0
616491983,49.2905610,-123.1426274,37
3675682179,49.2918526,-123.1444058,0
553076798,49.2890287,-123.1391275,155
1308503322,49.2804027,-123.1385819,0
327411241,49.2866168,-123.1138666,27
4323762301,49.2845025,-123.1209899,5
4472709676,49.2796143,-123.1205077,142
553185140,49.2778767,-123.1241076,51
2405683310,49.2874050,-123.1131124,0
3060053884,49.2814820,-123.1119230,0
3050982667,49.2784099,-123.1281362,118
553076802,49.2897327,-123.1380675,40
648495459,49.2904879,-123.1262439,0
3050984825,49.2815893,-123.1276564,0
5265175791,49.2821378,-123.1151643,0
5371928864,49.2883315,-123.1370137,0
339937521,49.2755957,-123.1205824,12
1313402032,49.2836623,-123.1164914,5
4357919485,49.2766105,-123.1190311,1
4789103186,49.2773775,-123.1421693,0
286351075,49.2789696,-123.1333295,23
97998243,49.2832809,-123.1227860,58
5251449343,49.2783183,-123.1333176,0
286351820,49.2855947,-123.1306953,28
472525894,49.2783793,-123.1302564,13
4357914289,49.2775297,-123.1169795,0
1308503103,49.2805757,-123.1384386,9
553101333,49.2829285,-123.1222277,2
472525906,49.2824556,-123.1322866,0
3673125451,49.2886085,-123.1428804,3
3188044007,49.2903263,-123.1260770,0
3654501227,49.2833536,-123.1226776,19
5075786161,49.2809905,-123.1162504,11
95205524,49.2926924,-123.1394312,45
553076816,49.2902042,-123.1431694,3
2405683336,49.2874840,-123.1132258,0
616492159,49.2921407,-123.1304294,1
940472857,49.2817613,-123.1134284,0
2515680224,49.2865857,-123.1115767,0
3072749004,49.2856643,-123.1195408,3
648495463,49.2902131,-123.1264660,4
2515680177,49.2856061,-123.1073163,0
430375476,49.2900539,-123.1290235,22
3690762170,49.2823372,-123.1299101,6
1308503241,49.2939421,-123.1334534,0
5464008309,49.2830457,-123.1155332,3
96676081,49.2880120,-123.1344204,17
553185100,49.2781182,-123.1276856,25
3498109899,49.2748855,-123.1397101,0
1572442744,49.2876628,-123.1128514,0
553185818,49.2856366,-123.1133561,0
38891274,49.2934986,-123.1352458,1
1848107257,49.2769892,-123.1194835,11
97998251,49.2782055,-123.1149543,34
291954253,49.2796720,-123.1365634,15
286351353,49.2855472,-123.1412852,35
4697100305,49.2902985,-123.1297832,8
3188044008,49.2903696,-123.1260454,0
553101311,49.2818632,-123.1238391,16
2487256237,49.2802164,-123.1320026,0
4912116308,49.2812846,-123.1390570,2
1712253717,49.2870144,-123.1187310,22
1308502891,49.2812893,-123.1399132,0
2915516867,49.2748389,-123.1217111,0
1529901541,49.2816793,-123.1203197,3
5371928870,49.2883776,-123.1370697,0
3673074122,49.2930454,-123.1410585,9
3673125471,49.2845982,-123.1427957,4
5921787069,49.2796755,-123.1114742,0
1572442749,49.2877528,-123.1126703,0
1316732229,49.2758264,-123.1351956,0
5371928873,49.2883564,-123.1370030,0
3654501230,49.2837534,-123.1223570,27
5371939628,49.2849244,-123.1317802,7
5265175790,49.2820839,-123.1150824,0
5262780333,49.2885417,-123.1406879,0
291954243,49.2873313,-123.1354506,13
250760633,49.2852886,-123.1158390,55
3680208015,49.2804714,-123.1384380,0
4322460352,49.2876223,-123.1280068,0
257879165,49.2875369,-123.1203888,29
5725675127,49.2818325,-123.1290158,1
2405683295,49.2873468,-123.1130779,0
286350391,49.2848238,-123.1369687,1
3188044009,49.2904168,-123.1260473,0
912942190,49.2881953,-123.1153513,194
6167558291,49.2789142,-123.1160476,48
4690226889,49.2920692,-123.1329119,0
3072748938,49.2871590,-123.1122856,0
257878785,49.2874547,-123.1131700,0
3633628725,49.2887593,-123.1179281,31
2405683290,49.2873276,-123.1130724,0
250760613,49.2807102,-123.1188506,195
250760607,49.2732406,-123.1438781,0
2655628833,49.2823985,-123.1202332,0
4357919481,49.2779354,-123.1211091,36
1030163533,49.2771327,-123.1411108,0
2405683346,49.2877054,-123.1138719,0
2465886246,49.2799370,-123.1243495,1
988212032,49.2869676,-123.1133999,11
2405683327,49.2874627,-123.1131830,0
3072749005,49.2862922,-123.1217506,0
4472063450,49.2829693,-123.1193596,0
3673125454,49.2863175,-123.1424705,41
5116361314,49.2827539,-123.1254341,14
3673083131,49.2929399,-123.1417496,3
878136027,49.2781769,-123.1345315,21
3438280929,49.2775458,-123.1418669,0
4896217353,49.2789725,-123.1111730,0
4435531547,49.2755419,-123.1206626,0
5371938516,49.2849362,-123.1317310,0
553101351,49.2873569,-123.1280048,8
430375281,49.2888170,-123.1227532,27
3035068250,49.2762380,-123.1294891,0
553185372,49.2816915,-123.1203422,9
5075786160,49.2807635,-123.1158993,11
245719316,49.2853125,-123.1138412,70
629344403,49.2929258,-123.1457846,0
3714369296,49.2779465,-123.1102478,0
631379271,49.2862195,-123.1370062,0
616492161,49.2921834,-123.1306123,0
3050982668,49.2794657,-123.1265590,0
3188044000,49.2903640,-123.1263489,0
629344405,49.2928970,-123.1431439,0
616492210,49.2872087,-123.1208618,5
2465886492,49.2808691,-123.1290495,0
29554449,49.2778119,-123.1106644,0
616492190,49.2917403,-123.1284631,13
638777077,49.2830846,-123.1133680,195
5265175793,49.2820101,-123.1149672,6
361211854,49.2825635,-123.1248581,0
553185617,49.2817961,-123.1124349,0
2405683268,49.2872422,-123.1130788,0
1712253704,49.2823195,-123.1383807,0
629759678,49.2929545,-123.1467001,0
559821506,49.2924553,-123.1347993,5
3678186235,49.2944751,-123.1366900,0
5431131829,49.2853007,-123.1224486,5
5138816300,49.2766129,-123.1173190,14
1308502899,49.2779981,-123.1308305,5
2405683315,49.2874248,-123.1131315,0
1572442733,49.2874716,-123.1128673,0
127533189,49.2906813,-123.1449581,0
553101356,49.2849742,-123.1242851,55
2465886608,49.2813069,-123.1294363,0
268528499,49.2927934,-123.1433253,0
3675682195,49.2921255,-123.1440142,0
1308502805,49.2764140,-123.1331293,0
5725675128,49.2808584,-123.1276422,4
3673083154,49.2932563,-123.1397599,0
1308502733,49.2935252,-123.1327751,0
630162935,49.2810373,-123.1399183,0
1308502736,49.2906997,-123.1303575,7
3072749001,49.2859755,-123.1203964,24
291954221,49.2876457,-123.1381163,22
1384876446,49.2769042,-123.1236152,0
3438280932,49.2774252,-123.1419749,0
3438864147,49.2758126,-123.1287605,0
472525917,49.2851022,-123.1341463,34
876509253,49.2756225,-123.1304747,0
356964487,49.2765214,-123.1155898,23
940472951,49.2773352,-123.1296824,8
357564211,49.2775562,-123.1236214,94
4357914188,49.2772001,-123.1164603,5
4789103189,49.2832456,-123.1311699,0
553076790,49.2883073,-123.1402185,30
5476797118,49.2795903,-123.1124910,0
3072749018,49.2887912,-123.1257340,0
3050984822,49.2813726,-123.1273398,0
4701575660,49.2760057,-123.1308895,0
357581459,49.2781933,-123.1245948,171
4697159933,49.2890324,-123.1381158,5
5464008293,49.2817739,-123.1172595,35
2405683309,49.2874015,-123.1131095,0
1308502937,49.2767318,-123.1334101,0
472211530,49.2914512,-123.1386046,15
3190594797,49.2880982,-123.1398946,2
291954230,49.2831918,-123.1312508,29
1308502995,49.2770601,-123.1325037,0
286351821,49.2863085,-123.1296055,55
3900799076,49.2877693,-123.1140973,0
616492223,49.2859663,-123.1128571,52
320274489,49.2814336,-123.1338975,14
2405683285,49.2873082,-123.1130694,2
3473137580,49.2758898,-123.1356876,0
2405683312,49.2874117,-123.1131184,0
472525795,49.2737291,-123.1275270,0
2405683332,49.2874751,-123.1132061,0
1520282348,49.2819960,-123.1153565,0
278079895,49.2845870,-123.1291424,41
648495457,49.2904700,-123.1261005,0
940472861,49.2849414,-123.1183244,16
2188770964,49.2855089,-123.1112249,0
4322319273,49.2875470,-123.1279808,0
357581406,49.2759217,-123.1210872,29
2625030362,49.2757507,-123.1300645,0
268528501,49.2919464,-123.1445750,0
4435531546,49.2752232,-123.1201633,0
286351822,49.2870098,-123.1285348,109
1712253542,49.2780232,-123.1178946,26
3673074092,49.2931787,-123.1402395,0
2465886277,49.2800612,-123.1245398,0
391696667,49.2837537,-123.1104519,0
1316792560,49.2752719,-123.1200896,0
4690226890,49.2913510,-123.1317894,6
2465886102,49.2793179,-123.1248774,84
250760636,49.2786011,-123.1220097,211
4322319279,49.2875893,-123.1276474,5
1712253673,49.2789107,-123.1158121,0
357551016,49.2748206,-123.1258546,0
3060065942,49.2801277,-123.1137760,0
1344158173,49.2866555,-123.1110279,0
2405683305,49.2873875,-123.1130989,0
988415803,49.2898454,-123.1226784,1
146537851,49.2777584,-123.1174680,26
2465886438,49.2805327,-123.1285718,0
5464008282,49.2824140,-123.1182156,473
1712253537,49.2779233,-123.1192216,27
1344158180,49.2867109,-123.1109355,0
988415762,49.2898808,-123.1230126,5
648495464,49.2904907,-123.1261697,0
940472858,49.2804673,-123.1249345,35
430041682,49.2904541,-123.1338552,125
3453439129,49.2775650,-123.1185895,0
2405683318,49.2874342,-123.1131422,0
1320674175,49.2875692,-123.1422914,0
631379268,49.2868632,-123.1390684,0
2405683298,49.2873582,-123.1130824,2
3679609635,49.2940469,-123.1373907,0
2465886092,49.2792623,-123.1242404,58
5716199786,49.2818502,-123.1292051,3
3663460602,49.2835255,-123.1194824,0
257878783,49.2877413,-123.1139980,0
3680208018,49.2792633,-123.1371197,0
2465886478,49.2807526,-123.1314131,118
2879023351,49.2794668,-123.1169147,49
1308502696,49.2933400,-123.1328878,0
1308502553,49.2811616,-123.1388609,0
1316792536,49.2748780,-123.1206977,0
1712253719,49.2871249,-123.1373117,31
2405683077,49.2760675,-123.1143784,0
320274492,49.2800329,-123.1317169,22
472215439,49.2888066,-123.1334131,20
3666252456,49.2872553,-123.1418336,53
629344411,49.2929779,-123.1447022,0
2383770172,49.2743684,-123.1219093,0
631803407,49.2825555,-123.1323953,17
630162939,49.2807991,-123.1395308,0
969694033,49.2758878,-123.1420569,0
3926570681,49.2815399,-123.1241896,0
268528500,49.2926036,-123.1436032,0
553076822,49.2917664,-123.1434059,13
286350311,49.2851860,-123.1364233,19
5453311110,49.2867623,-123.1113403,0
3456455747,49.2761636,-123.1355895,0
430375253,49.2894532,-123.1248989,7
5251449344,49.2781484,-123.1330539,37
391696668,49.2843708,-123.1114150,0
3456455748,49.2762065,-123.1356077,0
3666256566,49.2846579,-123.1426220,4
3648159819,49.2797640,-123.1271025,7
553185614,49.2784416,-123.1127109,0
616492175,49.2905928,-123.1282160,1
3673083129,49.2932443,-123.1475190,0
553076779,49.2855155,-123.1359197,17
326057037,49.2891154,-123.1216335,0
278079897,49.2846446,-123.1148532,122
2625030380,49.2756756,-123.1284074,0
3907196946,49.2813203,-123.1283811,15
3714350691,49.2772698,-123.1086310,0
4699203471,49.2808145,-123.1206347,124
3678167255,49.2885639,-123.1428155,0
1529901555,49.2824876,-123.1200969,0
2985508766,49.2790722,-123.1122557,0
2580238546,49.2876611,-123.1129346,0
250760598,49.2818560,-123.1171348,94
2915527695,49.2775058,-123.1141112,11
286351815,49.2820960,-123.1359749,23
3072749011,49.2888868,-123.1256759,0
3167955540,49.2927085,-123.1335746,0
2405683211,49.2786929,-123.1078061,0
5371939623,49.2849016,-123.1317878,0
5075786167,49.2808648,-123.1167053,1
250760622,49.2801002,-123.1178916,179
969694023,49.2754311,-123.1430325,0
553101277,49.2786429,-123.1338249,47
3721846842,49.2900260,-123.1353042,15
2405683278,49.2872808,-123.1130696,0
553185496,49.2826685,-123.1149416,12
1319731161,49.2776921,-123.1302220,34
1308502772,49.2922522,-123.1305975,0
1520282417,49.2823897,-123.1157544,0
3680165372,49.2882178,-123.1423188,1
553101365,49.2875032,-123.1247162,17
430375339,49.2927349,-123.1305767,0
243952980,49.2762297,-123.1406444,0
553101312,49.2821647,-123.1285367,0
616492192,49.2917784,-123.1285232,3
616492131,49.2838787,-123.1064102,0
3188044005,49.2902941,-123.1262481,0
2405683281,49.2872926,-123.1130689,0
5691888534,49.2824423,-123.1323674,0
2405683308,49.2873981,-123.1131067,0
1308503127,49.2940391,-123.1372535,0
2405683306,49.2873911,-123.1131014,0
3678167253,49.2889043,-123.1422391,0
559821504,49.2918255,-123.1349103,149
553076838,49.2831671,-123.1344014,31
4706105188,49.2818039,-123.1290571,7
988415825,49.2898012,-123.1228582,0
553101308,49.2817536,-123.1279048,0
4934809610,49.2887308,-123.1397998,17
2985506747,49.2779230,-123.1145173,12
2405683047,49.2758715,-123.1146399,0
631382518,49.2934733,-123.1355235,0
3456446216,49.2770470,-123.1322683,0
1386522821,49.2797841,-123.1250585,0
245808241,49.2840551,-123.1099901,0
2405683210,49.2786909,-123.1085945,0
1712253702,49.2821877,-123.1382655,10
559821582,49.2897844,-123.1317561,29
2405683262,49.2872198,-123.1130891,0
3932918974,49.2883107,-123.1348806,8
4789103192,49.2866773,-123.1366251,8
2405683266,49.2872347,-123.1130818,0
2321011485,49.2822797,-123.1341244,93
3060065939,49.2806754,-123.1129231,0
268528517,49.2930212,-123.1470727,0
3488072841,49.2860097,-123.1206370,0
414553536,49.2771666,-123.1042133,0
326057193,49.2904511,-123.1284237,12
5371928872,49.2883740,-123.1370180,0
1313402041,49.2843996,-123.1153954,14
2188770955,49.2852406,-123.1108545,0
5767015706,49.2835116,-123.1044018,0
3673083137,49.2934171,-123.1388943,0
3501882195,49.2868694,-123.1275358,5
3072748996,49.2858384,-123.1210988,0
3680251761,49.2760909,-123.1339116,0
3680165363,49.2881778,-123.1424355,0
3438280933,49.2775458,-123.1417229,0
4357914291,49.2784585,-123.1184128,41
1712253703,49.2822155,-123.1383749,0
2405683313,49.2874184,-123.1131247,0
2405683316,49.2874280,-123.1131349,0
3050984827,49.2815992,-123.1276019,0
878136052,49.2782136,-123.1344760,24
1335340861,49.2772758,-123.1144567,0
969694015,49.2758907,-123.1421744,0
553185251,49.2787218,-123.1189993,0
3072748942,49.2870446,-123.1119977,0
3167944421,49.2916917,-123.1297260,11
2188770958,49.2853822,-123.1109449,0
286351540,49.2822086,-123.1384671,5
553101310,49.2794392,-123.1286559,27
5371928866,49.2883248,-123.1370266,0
5476797119,49.2795727,-123.1124968,0
940472879,49.2820629,-123.1139255,2
3654501231,49.2840823,-123.1218577,25
31311136,49.2751028,-123.1451604,0
5371939627,49.2848913,-123.1317024,10
553076851,49.2869314,-123.1337554,17
5138816305,49.2765325,-123.1168278,0
320274494,49.2824400,-123.1354642,44
1313402107,49.2871952,-123.1169330,37
3932918976,49.2885573,-123.1349013,0
2405683264,49.2872272,-123.1130853,0
5870775019,49.2745562,-123.1262534,0
3680165373,49.2895341,-123.1443051,0
3932918979,49.2886083,-123.1353392,29
3488072839,49.2858996,-123.1200389,0
5697946443,49.2847074,-123.1271535,61
940472888,49.2855940,-123.1172461,8
940472891,49.2837287,-123.1200364,0
3673125465,49.2899309,-123.1449437,0
1712253520,49.2760747,-123.1239695,15
31311137,49.2752199,-123.1454896,0
553185203,49.2789201,-123.1225102,56
2188770949,49.2850625,-123.1112222,0
1529901641,49.2856937,-123.1209024,0
268528516,49.2933265,-123.1475927,0
4699203470,49.2797677,-123.1222373,505
472211524,49.2900964,-123.1343847,19
245808231,49.2737940,-123.1274033,0
4706105184,49.2819212,-123.1293146,0
2465886527,49.2810499,-123.1285976,0
250760606,49.2817319,-123.1134785,44
553076757,49.2855739,-123.1381409,6
1399014714,49.2758842,-123.1421939,0
2465886506,49.2809595,-123.1320830,91
291954195,49.2897563,-123.1348883,7
31311139,49.2753099,-123.1462145,0
1934671561,49.2799638,-123.1119179,0
27699324,49.2769828,-123.1323755,3
2405683108,49.2773214,-123.1132671,2
3673074124,49.2929691,-123.1430605,0
357581530,49.2769276,-123.1226474,47
278079904,49.2784031,-123.1184952,13
257879167,49.2871459,-123.1252498,77
3673125456,49.2830923,-123.1418454,0
471719405,49.2876189,-123.1423762,0
3050984823,49.2814166,-123.1273054,0
3673125455,49.2823559,-123.1406896,23
616492163,49.2924252,-123.1305602,0
266729876,49.2765952,-123.1289725,0
5975999689,49.2830986,-123.1200708,0
5138816301,49.2764305,-123.1170363,0
5464008289,49.2819394,-123.1170080,62
630162931,49.2813817,-123.1398099,4
1308502808,49.2876863,-123.1423813,4
3160523085,49.2876235,-123.1326974,7
430375514,49.2890589,-123.1282476,50
1308502853,49.2922749,-123.1318513,13
27519441,49.2846754,-123.1109497,0
5464008284,49.2824356,-123.1180509,62
3926570682,49.2815769,-123.1241380,4
286351348,49.2890412,-123.1360064,13
3035068249,49.2754528,-123.1281812,0
1313402124,49.2877249,-123.1162401,4
391696666,49.2830364,-123.1093313,0
26577987,49.2855599,-123.1193739,46
2405683204,49.2786761,-123.1086636,0
1308502940,49.2764500,-123.1350539,0
3673125478,49.2904028,-123.1457248,0
5469923463,49.2850089,-123.1329755,0
1344158188,49.2870356,-123.1100447,0
616492178,49.2910176,-123.1275875,3
1308503019,49.2936195,-123.1337204,0
1308502865,49.2939357,-123.1333824,0
3072748952,49.2888699,-123.1181225,6
430375462,49.2853106,-123.1237678,128
5141211224,49.2779276,-123.1172998,21
5971948622,49.2760016,-123.1156969,0
4926119697,49.2780946,-123.1180074,1
2405683079,49.2764994,-123.1139263,0
2405683259,49.2872089,-123.1130956,0
4322460355,49.2876770,-123.1279076,0
3942575754,49.2872573,-123.1332573,29
630877230,49.2921509,-123.1429436,16
3633628726,49.2887105,-123.1185822,0
3190594800,49.2879477,-123.1396615,1
4357919484,49.2769422,-123.1195541,18
5476820183,49.2799912,-123.1107649,0
988415811,49.2899605,-123.1230227,0
3648161568,49.2790603,-123.1195294,7
660080586,49.2764143,-123.1409096,0
3675682198,49.2922935,-123.1437594,0
2405683274,49.2872653,-123.1130720,0
3673083140,49.2929543,-123.1420119,0
2580238545,49.2875731,-123.1130284,0
2465886316,49.2802684,-123.1273960,290
2465886533,49.2810779,-123.1319053,9
361211089,49.2830302,-123.1251537,13
2326798069,49.2848082,-123.1245392,26
1308503130,49.2932007,-123.1330865,0
286316092,49.2829808,-123.1373359,45
5620000467,49.2806674,-123.1170116,11
5004181102,49.2779332,-123.1135502,17
2405683250,49.2871776,-123.1131203,0
3167955542,49.2933532,-123.1326454,4
616492057,49.2764833,-123.1330178,0
4241623689,49.2883161,-123.1259582,22
3716322630,49.2759019,-123.1183981,0
1313402139,49.2881662,-123.1156083,16
430375464,49.2839948,-123.1217226,34
2321014521,49.2816239,-123.1341938,0
253491085,49.2826492,-123.1217731,21
361211087,49.2822300,-123.1244152,356
3725493606,49.2772100,-123.1145505,46
616492148,49.2910253,-123.1298589,9
2465886686,49.2816618,-123.1289252,0
2405683248,49.2871711,-123.1131268,0
630162922,49.2804468,-123.1385195,0
553185272,49.2771874,-123.1154588,8
553101307,49.2808477,-123.1265157,50
5075786168,49.2807573,-123.1164612,0
250760628,49.2829777,-123.1154276,119
616492177,49.2914700,-123.1280374,0
3678184497,49.2926976,-123.1338905,1
2405683221,49.2787118,-123.1079237,0
5371928871,49.2883808,-123.1370418,0
3666252459,49.2870355,-123.1421662,0
3050984824,49.2814497,-123.1273220,0
660080620,49.2751728,-123.1399094,0
4926153113,49.2791577,-123.1164315,55
559821508,49.2937323,-123.1378571,3
1712253712,49.2866046,-123.1386541,24
2321014515,49.2819757,-123.1336543,11
472525953,49.2888036,-123.1332540,0
553185065,49.2775075,-123.1267388,52
3456455743,49.2767823,-123.1360423,0
2405683324,49.2874519,-123.1131658,0
3072748951,49.2888883,-123.1179848,0
5971948621,49.2762282,-123.1160416,0
539988853,49.2917563,-123.1379903,26
5251394286,49.2829246,-123.1293645,3
553185807,49.2849705,-123.1143593,34
430375440,49.2885067,-123.1262494,1
2405683192,49.2786401,-123.1087954,0
553076820,49.2910654,-123.1445091,0
2405683345,49.2876730,-123.1137659,0
320094081,49.2753510,-123.1327917,0
2405683231,49.2787239,-123.1080434,0
1308502559,49.2756468,-123.1323567,0
286352042,49.2881506,-123.1267931,75
553076763,49.2872893,-123.1386595,4
5469923462,49.2836176,-123.1308224,3
3072749000,49.2859542,-123.1202766,0
1308502875,49.2924942,-123.1338916,10
553101338,49.2836635,-123.1222160,132
3675703240,49.2929009,-123.1459678,0
616492152,49.2919345,-123.1310772,4
3942575755,49.2886497,-123.1332359,11
250760634,49.2836141,-123.1164121,52
2985506426,49.2763343,-123.1179575,2
3456455742,49.2762785,-123.1356525,0
1002935991,49.2851763,-123.1140475,14
1308502828,49.2934262,-123.1327359,0
3720020625,49.2757854,-123.1176364,0
1308503016,49.2765721,-123.1319297,0
3173492871,49.2867053,-123.1345030,16
4322319275,49.2876771,-123.1278133,1
326057052,49.2892568,-123.1220961,11
3072749003,49.2858188,-123.1198279,0
553185464,49.2829734,-123.1163823,0
559821511,49.2943714,-123.1365802,0
3648161563,49.2748620,-123.1259190,0
1308502653,49.2759575,-123.1328369,0
3292487540,49.2856811,-123.1132888,4
616492208,49.2871346,-123.1207497,0
2405683143,49.2778784,-123.1104781,0
4357919486,49.2762924,-123.1185662,0
2515680222,49.2865486,-123.1114420,0
553101342,49.2859647,-123.1301303,33
1308502580,49.2771626,-123.1337395,0
448800967,49.2776668,-123.1313313,25
616492199,49.2917511,-123.1287475,0
940472871,49.2846305,-123.1178375,0
278079905,49.2799732,-123.1142187,14
553185670,49.2824447,-123.1124001,6
2405683100,49.2771413,-123.1135490,0
3438280925,49.2764041,-123.1411407,0
5697946442,49.2845673,-123.1273621,0
553185395,49.2797796,-123.1174002,85
4561694669,49.2838473,-123.1199705,0
648495444,49.2934667,-123.1385237,26
878136029,49.2762675,-123.1314148,20
1344158168,49.2865788,-123.1107751,0
988415752,49.2899571,-123.1226937,0
3678184499,49.2932249,-123.1359776,8
1712253710,49.2855431,-123.1183575,0
278079894,49.2844254,-123.1211036,32
3050982669,49.2805112,-123.1250027,34
5629478421,49.2846556,-123.1138977,0
553076750,49.2893253,-123.1418022,20
127530407,49.2824062,-123.1324407,2
5004181103,49.2776081,-123.1140301,25
3680209536,49.2807614,-123.1380336,0
326056925,49.2869000,-123.1142651,0
5676612894,49.2770108,-123.1184380,24
553185383,49.2810262,-123.1193279,70
553076843,49.2847303,-123.1347054,21
4912113751,49.2810448,-123.1389821,0
2405683267,49.2872385,-123.1130802,0
1308502986,49.2785868,-123.1375772,0
3072749012,49.2888419,-123.1256709,0
660080598,49.2773747,-123.1419655,0
1352101937,49.2753337,-123.1318755,0
291954252,49.2803822,-123.1354961,26
3438854464,49.2761239,-123.1296564,0
616492151,49.2914050,-123.1292775,71
2915516861,49.2746274,-123.1213550,0
3680208021,49.2792513,-123.1371070,0
2465886034,49.2788826,-123.1248442,4
1320674160,49.2870802,-123.1423487,0
940472936,49.2794400,-123.1265131,6
2405683280,49.2872886,-123.1130690,0
2405683297,49.2873544,-123.1130808,0
1934671567,49.2793552,-123.1126073,0
553101285,49.2807197,-123.1306753,11
630162937,49.2808898,-123.1397330,0
245719331,49.2865875,-123.1178409,57
553076729,49.2826226,-123.1378764,31
268528509,49.2930255,-123.1425964,0
357550923,49.2748696,-123.1226839,0
2465886582,49.2813161,-123.1315671,12
1308503008,49.2783230,-123.1369637,0
2465886543,49.2811114,-123.1286973,0
26577982,49.2804649,-123.1115340,0
5620000468,49.2809876,-123.1174850,3
964535886,49.2830400,-123.1421161,0
4694783850,49.2862670,-123.1173536,0
96676072,49.2909191,-123.1420911,6
2400013423,49.2817910,-123.1104461,0
4322319272,49.2876409,-123.1279981,0
3675682183,49.2924989,-123.1435711,0
2405683307,49.2873946,-123.1131040,0
5371939624,49.2849371,-123.1317500,0
886976480,49.2775443,-123.1353739,0
286351817,49.2828047,-123.1349362,73
1712253528,49.2775482,-123.1186148,0
988211379,49.2882864,-123.1187751,0
5977944967,49.2791473,-123.1303383,41
29937393,49.2778816,-123.1104643,0
1572442734,49.2874656,-123.1130061,0
268528184,49.2824098,-123.1246789,0
5464008300,49.2835635,-123.1164882,231
4561694666,49.2837080,-123.1200047,53
553185191,49.2766269,-123.1221810,15
1320674212,49.2922242,-123.1441698,0
2405683261,49.2872161,-123.1130912,0
4322460353,49.2876320,-123.1280356,0
630162995,49.2756302,-123.1323819,0
553185704,49.2836297,-123.1123172,4
3680207998,49.2830360,-123.1419416,0
4322319274,49.2876583,-123.1277598,0
5141211222,49.2814210,-123.1101018,0
265688457,49.2787228,-123.1122605,39
268528508,49.2930766,-123.1431084,0
5251394288,49.2831495,-123.1290114,6
2405683340,49.2874934,-123.1132495,0
3167944422,49.2919546,-123.1293148,0
3438280934,49.2775536,-123.1417937,0
430041683,49.2879240,-123.1299397,100
286351351,49.2869908,-123.1391766,0
3832486241,49.2877478,-123.1162908,12
1308502844,49.2779936,-123.1348094,0
4472709675,49.2770936,-123.1166161,4
3680208008,49.2831727,-123.1419026,67
553076773,49.2865893,-123.1397349,170
3633628732,49.2887978,-123.1183725,0
2383770173,49.2744061,-123.1218482,0
3721846841,49.2896555,-123.1358749,11
2405683198,49.2786586,-123.1076388,0
326057022,49.2888235,-123.1206425,96
1491063030,49.2749393,-123.1395016,0
1572442730,49.2873893,-123.1129505,0
553185764,49.2856256,-123.1172951,37
2405683138,49.2778389,-123.1108470,2
38891255,49.2924772,-123.1370223,45
4362167747,49.2786971,-123.1122179,0
2405683222,49.2787135,-123.1084534,0
97141644,49.2811668,-123.1260307,102
146537850,49.2788395,-123.1159299,28
2405683288,49.2873199,-123.1130709,0
3874075169,49.2883376,-123.1425291,1
1319731348,49.2904829,-123.1261325,0
3072748995,49.2859488,-123.1211891,0
96676098,49.2818721,-123.1249590,29
286351071,49.2848204,-123.1423684,6
969693999,49.2750705,-123.1440214,0
472215437,49.2886555,-123.1334464,1
5265175788,49.2823267,-123.1152331,0
3680208020,49.2815350,-123.1395820,3
2985508769,49.2791295,-123.1129098,234
3160523079,49.2872153,-123.1309964,14
3072749009,49.2889662,-123.1256390,3
1319731347,49.2896353,-123.1230834,0
268528519,49.2929569,-123.1454624,0
326174966,49.2863056,-123.1098288,0
5300143655,49.2780019,-123.1307492,10
4357914290,49.2778212,-123.1174199,4
1344158159,49.2864209,-123.1102281,0
1712253721,49.2872651,-123.1195154,30
3673125463,49.2844967,-123.1427742,0
553101303,49.2835480,-123.1307158,10
1344158187,49.2870075,-123.1119099,0
3520048468,49.2760919,-123.1278155,123
940472877,49.2783684,-123.1280735,31
6167558292,49.2794162,-123.1168356,16
2078134682,49.2828518,-123.1240509,0
553185280,49.2787488,-123.1131533,0
6167558297,49.2798736,-123.1143681,85
327411251,49.2861207,-123.1130884,1
326057093,49.2900749,-123.1239159,19
2985506425,49.2762827,-123.1184111,0
631379264,49.2870285,-123.1393299,17
4322460356,49.2876790,-123.1278677,18
940472892,49.2836549,-123.1163515,303
3675682197,49.2923862,-123.1436012,0
553185023,49.2770589,-123.1292567,7
257878727,49.2859353,-123.1168291,93
1572449432,49.2851414,-123.1200135,42
988415802,49.2898974,-123.1226632,0
3072749007,49.2861681,-123.1214805,0
660080613,49.2771733,-123.1408975,0
430956932,49.2747228,-123.1318260,0
3675682193,49.2919290,-123.1446006,0
326175035,49.2873152,-123.1126829,0
5975999692,49.2833737,-123.1204848,0
245090995,49.2749393,-123.1397572,0
356964490,49.2775865,-123.1139967,20
1316792590,49.2760460,-123.1182414,0
1352174953,49.2902605,-123.1260377,0
630162918,49.2806157,-123.1390453,0
2465886496,49.2809046,-123.1290190,0
3673125472,49.2828295,-123.1414391,1
3690762174,49.2816151,-123.1309439,13
5251418154,49.2831403,-123.1311689,0
2405683260,49.2872125,-123.1130934,0
1030163527,49.2766944,-123.1406040,0
1520282369,49.2821052,-123.1152956,0
1491063037,49.2767315,-123.1404991,0
2013119808,49.2752685,-123.1456338,0
2985506751,49.2782098,-123.1139885,1
430375506,49.2895796,-123.1274346,23
553101339,49.2837773,-123.1220465,0
1352174884,49.2900151,-123.1240104,10
3707526537,49.2757669,-123.1351476,0
2405683092,49.2769564,-123.1137343,0
630162920,49.2804484,-123.1387882,0
245807890,49.2827726,-123.1099545,0
4357919482,49.2776417,-123.1206397,8
616492188,49.2916162,-123.1282678,1
3476051320,49.2880739,-123.1176142,22
1572442731,49.2874151,-123.1131215,0
1399014754,49.2761916,-123.1407763,0
553076828,49.2916259,-123.1410309,10
2405683343,49.2876232,-123.1136099,0
2405683201,49.2786674,-123.1076915,0
1313402101,49.2869480,-123.1164361,0
5431131830,49.2857081,-123.1220037,0
257878726,49.2849137,-123.1183662,41
3673125475,49.2903560,-123.1456357,0
988415844,49.2898233,-123.1229345,0
616492156,49.2919408,-123.1313146,18
2405683283,49.2873004,-123.1130689,0
31311138,49.2752948,-123.1458324,0
1520230841,49.2833454,-123.1159994,5
3932918978,49.2886113,-123.1350568,0
2405683276,49.2872730,-123.1130706,0
5971948623,49.2758866,-123.1156253,0
4951528674,49.2784356,-123.1303431,0
1712253715,49.2869489,-123.1227636,36
5371939626,49.2849124,-123.1316957,0
3072749016,49.2887837,-123.1256474,0
3072749008,49.2888627,-123.1256759,0
472211518,49.2921311,-123.1375600,8
988212162,49.2886197,-123.1187261,0
2985506750,49.2779081,-123.1135104,11
660080614,49.2774961,-123.1415946,0
4472709679,49.2796001,-123.1203614,17
553185683,49.2830742,-123.1114516,0
5075786164,49.2808337,-123.1163497,0
357551024,49.2767278,-123.1287731,32
254360077,49.2790881,-123.1291894,147
553076723,49.2819438,-123.1389574,1
3678188773,49.2935061,-123.1353610,7
6167558298,49.2800326,-123.1143146,13
3188044011,49.2904922,-123.1262070,0
945493437,49.2872195,-123.1251401,49
268528179,49.2836099,-123.1254817,1
1313402126,49.2878228,-123.1169660,0
472211526,49.2890706,-123.1328462,22
2405683303,49.2873803,-123.1130942,0
326175023,49.2867199,-123.1112205,0
2405683151,49.2779280,-123.1102993,0
3678188763,49.2835256,-123.1044445,0
3675682184,49.2924457,-123.1436523,0
1344158149,49.2860058,-123.1129163,70
3654501022,49.2827022,-123.1218593,13
553185760,49.2853018,-123.1167934,0
3160523083,49.2879725,-123.1321674,18
3160523076,49.2864910,-123.1320764,26
1785478263,49.2854776,-123.1192547,18
5138816306,49.2765622,-123.1168344,0
2405683284,49.2873043,-123.1130691,0
2405683279,49.2872847,-123.1130693,0
969694007,49.2754910,-123.1429015,0
1399014689,49.2756307,-123.1429546,0
553101347,49.2856331,-123.1275243,20
5464008291,49.2817942,-123.1170389,13
553185134,49.2785385,-123.1251260,35
5453108546,49.2817951,-123.1133775,5
629344414,49.2929984,-123.1428358,0
3072748939,49.2870752,-123.1120785,0
5265175789,49.2822521,-123.1153382,0
1335341173,49.2774804,-123.1170514,3
648495469,49.2904372,-123.1260594,0
5975999690,49.2832528,-123.1202962,0
3351594048,49.2783460,-123.1373668,0
2405683263,49.2872235,-123.1130872,0
2405683272,49.2872576,-123.1130739,0
2405683296,49.2873506,-123.1130793,0
5251383256,49.2824959,-123.1158818,0
2405683136,49.2777695,-123.1123249,0
660080600,49.2771033,-123.1412728,0
3167944423,49.2919022,-123.1290010,0
2188770948,49.2850543,-123.1110897,0
2321011494,49.2819537,-123.1347072,17
2405683317,49.2874311,-123.1131385,0
2465886068,49.2790808,-123.1245250,0
3072748962,49.2884044,-123.1189239,8
2321390623,49.2866785,-123.1139545,7
278079915,49.2757944,-123.1147347,0
553185109,49.2787284,-123.1286318,49
2405683246,49.2871646,-123.1131336,0
320274480,49.2777896,-123.1271762,146
1308502667,49.2784856,-123.1375045,0
1316732235,49.2760191,-123.1345868,0
2405683144,49.2778819,-123.1116567,0
3188044001,49.2904751,-123.1262852,0
357550971,49.2740082,-123.1240072,0
250760619,49.2773632,-123.1200697,8
1308503060,49.2758751,-123.1165857,0
38891246,49.2903822,-123.1402126,16
3648159818,49.2794390,-123.1265988,51
2078134678,49.2827604,-123.1242084,0
1308502767,49.2777167,-123.1314079,32
553185449,49.2814189,-123.1129986,36
3673156932,49.2805273,-123.1383834,4
4224509023,49.2819605,-123.1260858,2
266729877,49.2759133,-123.1299410,0
3721846836,49.2890069,-123.1359535,2
320094080,49.2761481,-123.1340088,0
1308502563,49.2773256,-123.1297956,45
361211090,49.2833955,-123.1253153,23
2405683342,49.2876128,-123.1135842,0
31311134,49.2750253,-123.1445127,0
940472938,49.2811375,-123.1124562,0
5464008305,49.2829269,-123.1153478,54
326174954,49.2855387,-123.1070765,0
1529901616,49.2845333,-123.1127098,0
2405683319,49.2874373,-123.1131459,0
4789103187,49.2771465,-123.1429311,0
2078134600,49.2827564,-123.1243345,0
553101363,49.2894305,-123.1276738,8
1712253705,49.2823346,-123.1384671,18
3188044004,49.2903097,-123.1262930,0
1712253734,49.2879012,-123.1216344,35
257879166,49.2839083,-123.1259112,47
