area,total_census_pop,male_pop,male_pop_percent,males_15_19,males_15_19_percent,males_20_24,males_20_24_percent,Males_25_29,males_25_29_percent,female_pop,female_pop_percent,females_15_19,females_15_19_percent,females_20_24,females_20_24_percent,females_25-29,females_25_19_percent,marital_survey_totals,single,single_percentage,married,married_percentage,language_survey_totals,non_official_languages,non_official_languages_percentage,religious_survey_totals,no_religious_affiliation,no_religious_affiliation_percentage,home_mobility_survey_totals,non_mover,non_mover_percentage,mover,mover_percentage,citizenship_survey_totals,canadian,canadian_percentage,non_canadian,non_canadian_percentage,immigration_survey_totals,non_immigrant_pop,non_immigrant_pop_percentage,immigrant_pop,immigrant_pop_percentage,visible_minority_survey_totals,visible_minority_pop,visible_minority_pop_percentage,aboriginal_survey_total,aboriginal_pop,aboriginal_pop_percentage,school_attendance_survey_totals,not_attending,not_attending_percentage,education_survey_totals,less_than_grade_9,less_than_grade_9_percentage,grade_9_to_13,grade_9_to_13_percentage,not_high_school_grad,not_high_school_grad_percentage,high_school_grad,high_school_grad_percentage,trades_or_diploma,trades_or_diploma_percentage,college_total,college_total_percentage,college_no_cert,college_no_cert_percentage,college_with_cert,college_with_cert_percentage,university_total,university_total_percentage,university_without_degree,university_without_degree_percentage,university_without_cert,university_without_cert_percentage,university_with_cert,university_with_cert_percentage,bachelors_or_higher,bachelors_or_higher_percentage,labour_force_survey_totals,in_labour_force,in_labour_force_percentage,in_labour_force_unemployed,in_labour_force_unemployed_percentage,not_in_labour_force,not_in_labour_force_percentage,income_survey_population_totals,average_employment_income,average_employment_income_inflation_adjusted,full_time_employment_pop,full_time_employment_pop_percentage,full_time_employment_income_average,full_time_employment_income_average_inflation_adjusted,part_time_employment_pop,part_time_employment_pop_percentage,part_time_employment_income_average,part_time_employment_income_average_inflation_adjusted,mean_family_income,mean_family_income_inflation_adjusted,median_family_income,median_family_income_inflation_adjusted
Arbutus-Ridge,15295,6925,45.2762340634194,650,4.2497548218372,555,3.62863680941484,405,2.64792415822164,8370,54.7237659365806,580,3.79208891794704,615,4.02092186989212,405,2.64792415822164,13280,4110,30.9487951807229,6615,49.8117469879518,15140,7935,52.4108322324967,,,,15010,12635,84.1772151898734,2375,15.8227848101266,15075,12200,80.9286898839138,2870,19.0381426202322,15070,6650,44.1274054412741,7730,51.2939615129396,15075,8760,58.1094527363184,15070,260,1.72528201725282,,,,13055,,,,,1460,11.18345461509,3120,23.8988893144389,205,1.57027958636538,,,,,1645,12.6005361930295,,,,,,,525,4.02144772117963,5990,45.8828035235542,13055,6775,51.8958253542704,450,3.44695518958254,6280,48.1041746457296,12185,62675,66435.5,2510,20.5990972507181,97327,,4405,36.1510053344276,,,124666,132145.96,71008,75268.48
Downtown,62030,33100,53.3612768015476,605,0.975334515556988,1895,3.05497339996776,4280,6.89988715137837,28935,46.6467838142834,580,0.935031436401741,2150,3.46606480735128,4535,7.31097855876189,58030,23510,40.5135274857832,19075,32.8709288299156,60235,24500,40.6740267286461,,,,58315,43760,75.0407270856555,14555,24.9592729143445,58855,46725,79.3900263359103,12130,20.6099736640897,58855,29690,50.4460113839096,23590,40.0815563673435,58855,25690,43.6496474386203,58855,1740,2.95641831620083,,,,54905,,,,,2665,4.85383844822876,10115,18.4227301702941,1325,2.41325926600492,,,,,8635,15.7271651033604,,,,,,,2400,4.37118659502778,28935,52.7001183863036,54905,40010,72.8713231946089,2240,4.07977415535926,14895,27.1286768053911,53630,63251,67046.06,20525,38.2714898377774,86231,,19215,35.8288271489838,,,96632,102429.92,66583,70577.98
Dunbar-Southlands,21425,10340,48.2613768961494,930,4.34072345390899,900,4.20070011668611,575,2.68378063010502,11090,51.7619603267211,870,4.06067677946324,840,3.92065344224037,535,2.49708284714119,17875,5400,30.2097902097902,10035,56.1398601398601,21330,7450,34.9273323956868,,,,21175,18280,86.3282172373082,2895,13.6717827626919,21285,18190,85.4592435987785,3095,14.5407564012215,21285,12605,59.2201080573174,7960,37.3972280949025,21285,8270,38.8536528071412,21285,1020,4.79210711768851,,,,17790,,,,,1625,9.13434513771782,3870,21.7537942664418,250,1.4052838673412,,,,,2005,11.2703766160764,,,,,,,475,2.67003934794829,9330,52.4451939291737,17790,10225,57.4761101742552,635,3.56942102304666,7565,42.5238898257448,16685,78117,82804.02,4095,24.5430026970333,123096,,6865,41.1447407851364,,,172768,183134.08,104450,110717
Fairview,33620,15115,44.9583581201666,300,0.892325996430696,775,2.3051754907793,1780,5.29446757882213,18500,55.0267697798929,355,1.05591909577632,1085,3.22724568709102,2250,6.69244497323022,31040,11000,35.4381443298969,10475,33.7467783505155,33000,8075,24.469696969697,,,,32390,26105,80.5958629206545,6285,19.4041370793455,32725,29025,88.6936592818946,3695,11.2910618792972,32725,21895,66.9060351413293,9560,29.2131398013751,32725,8490,25.9434682964095,32720,930,2.84229828850856,,,,30125,,,,,1100,3.65145228215768,5155,17.1120331950208,645,2.14107883817427,,,,,5000,16.597510373444,,,,,,,1060,3.51867219917012,16620,55.1701244813278,30125,22685,75.3029045643154,1050,3.48547717842324,7440,24.6970954356846,29655,61627,65324.62,11590,39.0827853650312,75316,,11520,38.8467374810319,,,93652,99271.12,69337,73497.22
Grandview-Woodland,29175,14255,48.8603256212511,435,1.49100257069409,700,2.39931448157669,1620,5.55269922879177,14920,51.1396743787489,400,1.37103684661525,825,2.82776349614396,1835,6.28963153384747,25970,10630,40.9318444358876,7355,28.3211397766654,29025,7155,24.6511627906977,,,,28710,23820,82.9676071055382,4890,17.0323928944619,29000,26525,91.4655172413793,2480,8.55172413793103,29005,20490,70.6429925874849,7715,26.5988622651267,29005,8125,28.0124116531632,29000,2440,8.41379310344828,,,,25915,,,,,3640,14.0459193517268,6060,23.3841404591935,780,3.00983986108431,,,,,4305,16.6120007717538,,,,,,,840,3.24136600424465,9545,36.8319506077561,25910,19120,73.793901968352,1005,3.87881126978001,6790,26.206098031648,25435,42896,45469.76,8900,34.9911539217614,60584,,10540,41.4389620601533,,,72585,76940.1,55141,58449.46
Hastings-Sunrise,34575,16910,48.9081706435286,890,2.57411424439624,1205,3.48517715112075,1435,4.15039768618944,17670,51.1062906724512,890,2.57411424439624,1155,3.34056399132321,1320,3.8177874186551,29980,10225,34.1060707138092,13100,43.6957971981321,34180,17625,51.5652428320655,,,,33740,29460,87.3147599288678,4280,12.6852400711322,34110,30585,89.6657871591909,3530,10.3488712987394,34110,17845,52.3160363529757,15305,44.869539724421,34115,20020,58.6838634031951,34115,1315,3.85460940935073,,,,29410,,,,,6735,22.9003740224413,8845,30.0748044882693,825,2.80516831009861,,,,,4360,14.8248894933696,,,,,,,925,3.14518871132268,6720,22.8493709622577,29410,18870,64.1618497109827,1110,3.77422645358721,10535,35.8211492689561,28420,38258,40553.48,8630,30.36593947924,58819,,10545,37.1041520056298,,,85430,90555.8,68506,72616.36
Kensington-Cedar Cottage,49325,24060,48.7785098834263,1340,2.71667511403953,1770,3.58844399391789,2190,4.43993917891536,25265,51.2214901165737,1290,2.61530663963507,1700,3.44652812975165,2135,4.32843385707045,42260,14895,35.2460955986749,18540,43.8712730714624,48965,24790,50.627999591545,,,,48370,41225,85.2284473847426,7145,14.7715526152574,48870,42755,87.487210967874,6115,12.512789032126,48870,24760,50.6650296705545,22610,46.2656026191938,48870,31120,63.6791487620217,48870,1180,2.41456926539799,,,,41795,,,,,8555,20.4689556167006,11445,27.3836583323364,1165,2.7874147625314,,,,,5975,14.2959684172748,,,,,,,1165,2.7874147625314,12345,29.5370259600431,41795,28920,69.1948797703075,1700,4.06747218566814,12875,30.8051202296925,40440,38411,40715.66,12830,31.7260138476756,57880,,16340,40.4055390702275,,,86821,92030.26,70815,75063.9
Kerrisdale,13975,6495,46.4758497316637,535,3.82826475849732,540,3.86404293381038,485,3.47048300536673,7475,53.4883720930233,520,3.72093023255814,610,4.3649373881932,420,3.00536672629696,12095,3775,31.211244315833,6245,51.6329061595701,13955,6615,47.4023647438194,,,,13810,11740,85.0108616944243,2070,14.9891383055757,13900,11670,83.9568345323741,2225,16.0071942446043,13895,6560,47.2112270600936,6640,47.7869737315581,13895,8125,58.4742713206189,13900,115,0.827338129496403,,,,12060,,,,,1075,8.91376451077944,3020,25.0414593698176,145,1.20232172470978,,,,,1350,11.1940298507463,,,,,,,440,3.64842454394693,5865,48.6318407960199,12065,6395,53.0045586406962,480,3.97845006216328,5675,47.0368835474513,11435,77248,81882.88,2355,20.5946655006559,119132,,4295,37.5601224311325,,,159794,169381.64,75419,79944.14
Killarney,29325,13935,47.5191815856778,900,3.0690537084399,1015,3.461210571185,945,3.22250639386189,15390,52.4808184143223,865,2.94970161977835,980,3.34185848252344,805,2.74509803921569,25140,7745,30.8074781225139,12535,49.8607796340493,28920,16430,56.8118948824343,,,,28670,25205,87.9141960237182,3470,12.1032438088594,28930,25435,87.9191151054269,3500,12.0981679917041,28935,13295,45.94781406601,15120,52.2550544323484,28930,20690,71.5174559281023,28935,600,2.07361327112494,,,,24675,,,,,4055,16.4336372847011,7175,29.0780141843972,740,2.99898682877406,,,,,4075,16.5146909827761,,,,,,,855,3.46504559270517,7180,29.0982776089159,24675,15405,62.4316109422492,830,3.36372847011145,9275,37.5886524822695,23590,39013,41353.78,7470,31.665960152607,59127,,8540,36.2017804154303,,,86302,91480.12,71559,75852.54
Kitsilano,43045,20115,46.7301661052387,680,1.57974213032873,1365,3.17110001161575,2420,5.62202346381694,22935,53.2814496457196,740,1.71913114182832,1885,4.37913811127889,2880,6.69067255198049,38725,14585,37.6630083925113,13075,33.7637185280826,42815,9080,21.2075207287166,,,,42280,33725,79.7658467360454,8555,20.2341532639546,42755,36945,86.4109460881768,5805,13.5773593731727,42755,28840,67.454098935797,11580,27.0845515144428,42755,8575,20.0561337855222,42755,1030,2.40907496199275,,,,38450,,,,,1985,5.16254876462939,6985,18.1664499349805,870,2.26267880364109,,,,,5355,13.927178153446,,,,,,,1145,2.9778933680104,21320,55.4486345903771,38450,28850,75.0325097529259,1500,3.90117035110533,9600,24.9674902470741,37500,63092,66877.52,13710,36.56,81621,,15830,42.2133333333333,,,103076,109260.56,72839,77209.34
Marpole,24460,11855,48.4668847097302,705,2.88225674570728,1015,4.14963205233034,1095,4.4766966475879,12610,51.5535568274734,700,2.86181520850368,1045,4.27228127555192,1090,4.4562551103843,21820,7965,36.5032080659945,9435,43.2401466544455,24075,13780,57.2377985462098,,,,23885,19345,80.9922545530668,4540,19.0077454469332,24135,19770,81.9142324425109,4360,18.0650507561632,24135,9860,40.8535322146261,13140,54.4437538844002,24135,16110,66.7495338719702,24135,480,1.98881292728403,,,,21385,,,,,2235,10.4512508767828,6215,29.0624269347674,620,2.89922843114332,,,,,3080,14.4026186579378,,,,,,,770,3.60065466448445,8025,37.5263034837503,21390,13415,62.7162225338943,965,4.51145395044413,7970,37.260402057036,20535,39020,41361.2,5840,28.4392500608717,63650,,7940,38.6656927197468,,,73490,77899.4,53782,57008.92
Mount Pleasant,32955,16130,48.9455317857685,320,0.971021089364285,735,2.23031406463359,2210,6.70611439842209,16825,51.0544682142315,300,0.910332271279017,975,2.9585798816568,2685,8.1474738279472,29880,11715,39.2068273092369,9040,30.2543507362784,32450,8125,25.0385208012327,,,,31865,25025,78.5344421779382,6845,21.4812490193002,32235,28960,89.8402357685745,3275,10.1597642314255,32230,22125,68.6472230840832,9010,27.9553211293826,32230,10285,31.9112627986348,32235,1275,3.95532805956259,,,,29225,,,,,1950,6.67236954662104,5445,18.6313088109495,720,2.46364414029085,,,,,5140,17.5876817792985,,,,,,,1005,3.43883661248931,14245,48.7425149700599,29225,23880,81.7108639863131,1125,3.84944396920445,5345,18.2891360136869,28855,54260,57515.6,12265,42.5056316063074,72037,,11760,40.7555016461618,,,87054,92277.24,66299,70276.94
Oakridge,13030,5995,46.0092095165004,415,3.18495778971604,540,4.14428242517268,475,3.64543361473523,7040,54.0291634689179,420,3.22333077513431,500,3.83729854182655,515,3.95241749808135,11470,3620,31.5605928509154,5830,50.8282476024411,12930,8385,64.8491879350348,,,,12945,10985,84.8590189262263,1960,15.1409810737737,13025,10675,81.957773512476,2345,18.0038387715931,13025,4715,36.1996161228407,7720,59.2706333973129,13025,9825,75.4318618042227,13025,115,0.882917466410749,,,,11455,,,,,1430,12.4836316019206,2990,26.1021388040157,235,2.05150589262331,,,,,1335,11.6542994325622,,,,,,,390,3.40462680052379,4875,42.5578350065474,11455,5735,50.0654735923178,325,2.83718900043649,5720,49.9345264076822,10850,46515,49305.9,2255,20.7834101382488,74137,,3635,33.5023041474654,,,100495,106524.7,62988,66767.28
Renfrew-Collingwood,51530,25140,48.7871143023481,1455,2.82359790413351,2265,4.39549776829032,2530,4.9097613040947,26390,51.2128856976519,1355,2.62953619250922,2070,4.01707743062294,2285,4.43431011061518,45225,16310,36.0641238253179,20300,44.8866777224986,51230,32460,63.3613117314074,,,,50780,43565,85.7916502560063,7210,14.1985033477747,51220,42925,83.8051542366263,8290,16.1850839515814,51220,19985,39.0179617336978,28710,56.0523233112066,51220,39890,77.8797344787193,51220,980,1.91331511128465,,,,44995,,,,,9465,21.03567063007,13845,30.7700855650628,1500,3.33370374486054,,,,,6650,14.7794199355484,,,,,,,1590,3.53372596955217,10690,23.7581953550394,44995,29125,64.7294143793755,1695,3.76708523169241,15875,35.2816979664407,43510,33360,35361.6,13105,30.1195127556883,51417,,16530,37.9912663755458,,,76941,81557.46,64179,68029.74
Riley Park,22555,10775,47.7721126136112,545,2.41631567279982,610,2.70450011084017,925,4.10108623365108,11775,52.2057193526934,525,2.32764353801818,725,3.21436488583463,1030,4.56661494125471,19140,6435,33.6206896551724,8620,45.0365726227795,22370,7720,34.5105051408136,,,,22105,18665,84.4379099751188,3440,15.5620900248812,22370,20370,91.0594546267322,1995,8.9181940098346,22365,14055,62.8437290409121,7645,34.1828750279454,22365,9855,44.0643863179074,22370,625,2.79392042914618,,,,18965,,,,,2260,11.9166886369628,4195,22.1196941734775,475,2.50461376219351,,,,,2755,14.5267598207224,,,,,,,540,2.84735038228315,8340,43.9757447930398,18960,13200,69.620253164557,645,3.40189873417721,5765,30.4061181434599,18405,53060,56243.6,6205,33.7136647650095,74356,,7305,39.6903015484923,,,110518,117149.08,83513,88523.78
Shaughnessy,8430,3930,46.6192170818505,290,3.44009489916963,310,3.6773428232503,270,3.20284697508897,4505,53.4400948991696,285,3.38078291814947,320,3.79596678529063,275,3.26215895610913,7255,2280,31.4266023432116,3790,52.2398345968298,8210,3650,44.4579780755177,,,,7950,6800,85.5345911949686,1150,14.4654088050314,7995,6725,84.11507191995,1265,15.8223889931207,7990,4145,51.8773466833542,3535,44.2428035043805,7990,4325,54.1301627033792,7990,80,1.00125156445557,,,,6735,,,,,535,7.94357832219748,1505,22.3459539717892,70,1.03934669636229,,,,,735,10.913140311804,,,,,,,290,4.30586488492947,3525,52.3385300668152,6735,3940,58.5003711952487,185,2.74684484038604,2790,41.4253897550111,6370,118668,125788.08,1390,21.8210361067504,133944,,2635,41.3657770800628,,,262760,278525.6,111566,118259.96
South Cambie,7970,3785,47.4905897114178,195,2.44667503136763,225,2.82308657465496,335,4.20326223337516,4180,52.4466750313676,190,2.38393977415307,250,3.13676286072773,370,4.64240903387704,6865,2235,32.5564457392571,3090,45.0109249817917,7675,2670,34.7882736156352,,,,7510,6175,82.2237017310253,1335,17.7762982689747,7570,6800,89.8282694848085,765,10.105680317041,7565,4600,60.8063450099141,2630,34.7653668208857,7565,3275,43.291473892928,7570,140,1.84940554821664,,,,6510,,,,,555,8.52534562211982,1285,19.7388632872504,115,1.76651305683564,,,,,1010,15.5145929339478,,,,,,,215,3.3026113671275,3225,49.5391705069124,6510,4415,67.8187403993856,295,4.53149001536098,2095,32.1812596006144,6280,65459,69386.54,2050,32.6433121019108,86950,,2480,39.4904458598726,,,130230,138043.8,83111,88097.66
Strathcona,12585,6835,54.310687326182,195,1.54946364719905,275,2.18514104092173,415,3.29757647993643,5745,45.6495828367104,175,1.39054429876838,300,2.38379022646007,465,3.69487485101311,11515,5150,44.7242726877985,2505,21.7542336083369,11125,4090,36.7640449438202,,,,9810,8110,82.6707441386341,1705,17.3802242609582,9855,8850,89.8021308980213,1010,10.2486047691527,9855,5765,58.4982242516489,3895,39.5230847285642,9855,4455,45.2054794520548,9860,1005,10.1926977687627,,,,8810,,,,,2430,27.5822928490352,2255,25.5959137343927,325,3.68898978433598,,,,,1260,14.3019296254257,,,,,,,255,2.894438138479,2055,23.3257661748014,8810,4535,51.4755959137344,385,4.37003405221339,4275,48.5244040862656,8605,31534,33426.04,1900,22.0801859384079,60423,,2625,30.5055200464846,,,46368,49150.08,21964,23281.84
Sunset,36500,17900,49.041095890411,1295,3.54794520547945,1570,4.3013698630137,1545,4.23287671232877,18595,50.9452054794521,1270,3.47945205479452,1405,3.84931506849315,1360,3.72602739726027,31040,10565,34.0367268041237,15450,49.7744845360825,36345,23445,64.5068097399917,,,,35755,30155,84.3378548454762,5600,15.6621451545238,36075,29270,81.1365211365211,6810,18.8773388773389,36080,14250,39.4955654101996,20155,55.8619733924612,36075,29895,82.8690228690229,36075,545,1.51074151074151,,,,30690,,,,,6485,21.1306614532421,9335,30.4170739654611,965,3.14434669273379,,,,,4015,13.0824372759857,,,,,,,1285,4.18703160638645,7950,25.9042033235582,30685,20150,65.6672641355711,1040,3.3892781489327,10535,34.3327358644289,29090,34212,36264.72,8080,27.7758679958749,53208,,12110,41.62942591956,,,85835,90985.1,68855,72986.3
Victoria-Fraserview,31065,14855,47.819089006921,955,3.07419925961693,1160,3.73410590696926,1160,3.73410590696926,16215,52.1970062771608,940,3.02591340737164,1055,3.39610494125221,1135,3.65362948656044,27280,8680,31.8181818181818,13560,49.7067448680352,30325,20630,68.0296784830998,,,,30005,26465,88.2019663389435,3535,11.7813697717047,30235,25965,85.8772945262114,4270,14.1227054737887,30235,11410,37.7377211840582,18155,60.0463039523731,30235,25460,84.207044815611,30235,435,1.43872994873491,,,,26440,,,,,5920,22.3903177004539,8710,32.9425113464448,815,3.08245083207262,,,,,3705,14.0128593040847,,,,,,,865,3.27155824508321,5785,21.8797276853253,26440,16125,60.9871406959153,1045,3.95234493192133,10315,39.0128593040847,25415,34298,36355.88,6950,27.3460554790478,53238,,9465,37.2417863466457,,,85722,90865.32,68126,72213.56
West End,47200,24670,52.2669491525424,285,0.603813559322034,1440,3.05084745762712,3565,7.55296610169492,22530,47.7330508474576,325,0.688559322033898,1665,3.52754237288136,3810,8.07203389830509,45255,19525,43.144403933267,11205,24.7596950613192,46915,15610,33.2729404241714,,,,46430,35055,75.5007538229593,11370,24.4884772776222,46720,36155,77.3865582191781,10565,22.6134417808219,46720,25460,54.4948630136986,15945,34.128852739726,46720,13385,28.6494006849315,46720,1515,3.24272260273973,,,,44755,,,,,2170,4.84862026589208,9095,20.3217517595799,1360,3.03876661825494,,,,,8330,18.6124455368115,,,,,,,1930,4.31236733325885,20795,46.4640822254497,44755,33530,74.9190034633002,1770,3.95486537817004,11225,25.0809965366998,43975,47253,50088.18,16250,36.9528140989198,64503,,17250,39.2268334280841,,,67432,71477.92,51410,54494.6
West Point Grey,13065,6215,47.5698430922312,465,3.55912743972445,580,4.43934175277459,385,2.94680443934175,6855,52.4684270952928,450,3.4443168771527,630,4.82204362801378,390,2.98507462686567,11170,3630,32.4977618621307,5505,49.2837958818263,13065,4270,32.6827401454267,,,,12865,10645,82.7438787407695,2215,17.2172561212592,12925,10855,83.9845261121857,2075,16.0541586073501,12925,7480,57.8723404255319,4785,37.0212765957447,12925,4660,36.0541586073501,12925,300,2.321083172147,,,,11045,,,,,755,6.83567224988683,2375,21.5029425079221,130,1.17700316885469,,,,,1290,11.6794929832503,,,,,,,405,3.66681756450883,5935,53.7347215934812,11050,6480,58.6425339366516,415,3.75565610859728,4570,41.3574660633484,10520,82042,86964.52,2295,21.8155893536122,127088,,4495,42.7281368821293,,,161576,171270.56,84951,90048.06
Vancouver CSD (City of Vancouver),631485,308515,48.8554755853267,14305,2.26529529600861,21410,3.3904209917892,30990,4.90747998764816,322975,51.145316199118,13965,2.21145395377562,22740,3.60103565405354,32485,5.1442235365844,560955,203550,36.2863331283258,224800,40.0745157811233,622635,274210,44.0402482995656,,,,612735,505505,82.4997755963018,107230,17.5002244036982,618210,525810,85.0536225554423,92400,14.9463774445577,618210,325175,52.5994403196325,262765,42.50416525129,618210,319005,51.6013975833455,618210,17335,2.80406334417107,,,,547845,,,,,68855,12.568335934434,132610,24.2057516268288,14215,2.59471200795846,,,,,81820,14.9348812164025,,,,,,,19320,3.52654491690168,218900,39.9565570553715,547845,370955,67.7116702717009,20815,3.79943232118574,176890,32.2883297282991,530100,50317,53336.02,170875,32.2344840596114,71274,,205855,38.8332390115073,,,93947,99583.82,65423,69348.38
Vancouver CMA  (Metro Vancouver),2463430,1202170,48.8006559959081,73180,2.97065473750015,85385,3.46610214213515,89300,3.62502689339661,1261260,51.1993440040919,69100,2.80503200821619,81890,3.32422678947646,90640,3.67942259370065,2101320,629035,29.9352311880152,1033885,49.201692269621,2440145,1020250,41.8110399177098,,,,2403020,2024075,84.2304683273547,378945,15.7695316726453,2426230,2103120,86.682631077845,323115,13.3175750031943,2426235,1358990,56.0122988910802,989545,40.7852083578054,2426235,1185680,48.8691326273012,2426235,74705,3.0790504629601,,,,2064615,,,,,287135,13.9074355267205,589940,28.573850330449,61205,2.96447521692906,,,,,345280,16.7236990915982,,,,,,,77850,3.77067879483584,631385,30.5812463824975,2064610,1355520,65.6550147485482,78620,3.80798310576816,709090,34.3449852514518,1978880,46821,49630.26,637395,32.2098864003881,67916,,741460,37.4686691461837,,,96423,102208.38,72585,76940.1
